<?xml version="1.0" encoding="UTF-8" standalone="no"?>
<svg
   width="16px"
   height="17px"
   viewBox="0 0 16 17"
   version="1.1"
   id="svg16"
   sodipodi:docname="icon-map-export.svg"
   inkscape:version="1.1 (1:1.1+202105261517+ce6663b3b7)"
   xmlns:inkscape="http://www.inkscape.org/namespaces/inkscape"
   xmlns:sodipodi="http://sodipodi.sourceforge.net/DTD/sodipodi-0.dtd"
   xmlns="http://www.w3.org/2000/svg"
   xmlns:svg="http://www.w3.org/2000/svg"
   xmlns:rdf="http://www.w3.org/1999/02/22-rdf-syntax-ns#"
   xmlns:cc="http://creativecommons.org/ns#"
   xmlns:dc="http://purl.org/dc/elements/1.1/">
  <sodipodi:namedview
     id="namedview18"
     pagecolor="#ffffff"
     bordercolor="#666666"
     borderopacity="1.0"
     inkscape:pageshadow="2"
     inkscape:pageopacity="0.0"
     inkscape:pagecheckerboard="0"
     showgrid="false"
     inkscape:zoom="24.823529"
     inkscape:cx="8.7618483"
     inkscape:cy="9.0035545"
     inkscape:window-width="1920"
     inkscape:window-height="1016"
     inkscape:window-x="0"
     inkscape:window-y="27"
     inkscape:window-maximized="1"
     inkscape:current-layer="g10" />
  <title
     id="title2">539D8322-99FC-4041-85C0-C81E7D1327C3</title>
  <defs
     id="defs5">
    <path
       d="M3.2,13.6 L0.8,13.6 C0.3581722,13.6 0,13.2418278 0,12.8 L0,4.8 C0,4.3581722 0.3581722,4 0.8,4 L3.2,4 L3.2,0.8 C3.2,0.3581722 3.5581722,0 4,0 L12,0 C12.4418278,0 12.8,0.3581722 12.8,0.8 L12.8,4 L15.2,4 C15.6418278,4 16,4.3581722 16,4.8 L16,12.8 C16,13.2418278 15.6418278,13.6 15.2,13.6 L12.8,13.6 L12.8,15.2 C12.8,15.6418278 12.4418278,16 12,16 L4,16 C3.5581722,16 3.2,15.6418278 3.2,15.2 L3.2,13.6 Z M3.2,12 L3.2,11.2 C3.2,10.7581722 3.5581722,10.4 4,10.4 L12,10.4 C12.4418278,10.4 12.8,10.7581722 12.8,11.2 L12.8,12 L14.4,12 L14.4,5.6 L1.6,5.6 L1.6,12 L3.2,12 Z M4.8,1.6 L4.8,4 L11.2,4 L11.2,1.6 L4.8,1.6 Z M4.8,12 L4.8,14.4 L11.2,14.4 L11.2,12 L4.8,12 Z M2.4,6.4 L4.8,6.4 L4.8,8 L2.4,8 L2.4,6.4 Z"
       id="path-1" />
  </defs>
  <metadata
     id="metadata835">
    <rdf:RDF>
      <cc:Work
         rdf:about="">
        <dc:title>539D8322-99FC-4041-85C0-C81E7D1327C3</dc:title>
      </cc:Work>
    </rdf:RDF>
  </metadata>
  <g
     id="g838"
     transform="matrix(0.83317245,0,0,0.83317245,0.12461831,1.0970819)">
    <g
       id="g10">
      <path
         class="st0"
         d="m 17.29,0.29 c 0.39,-0.39 1.02,-0.39 1.41,0 0.39,0.39 0.39,1.02 0,1.41 l -9,9 C 9.31,11.09 8.68,11.09 8.29,10.7 7.9,10.31 7.9,9.68 8.29,9.29 Z"
         id="path4"
         style="fill:#d53e2a;fill-opacity:1" />
      <path
         class="st0"
         d="M 17,2 H 13 C 12.45,2 12,1.55 12,1 12,0.45 12.45,0 13,0 h 5 c 0.55,0 1,0.45 1,1 V 6 C 19,6.55 18.55,7 18,7 17.45,7 17,6.55 17,6 Z"
         id="path6"
         style="fill:#d53e2a;fill-opacity:1" />
      <path
         class="st0"
         d="m 15,10.5 c 0,-0.55 0.45,-1 1,-1 0.55,0 1,0.45 1,1 v 5.63 C 17,17.72 15.71,19 14.13,19 H 2.87 C 1.29,19 0,17.71 0,16.13 V 4.87 C 0,3.29 1.29,2 2.87,2 6.9,2 6.9,2 8.96,2 c 0.55,0 1,0.45 1,1 0,0.55 -0.45,1 -1,1 C 6.91,4 6.91,4 2.87,4 2.39,4 2,4.39 2,4.87 V 16.12 C 2,16.61 2.39,17 2.87,17 h 11.25 c 0.48,0 0.87,-0.39 0.87,-0.87 V 10.5 Z"
         id="path8"
         style="fill:#d53e2a;fill-opacity:1" />
    </g>
  </g>
</svg>
