<?xml version="1.0" encoding="UTF-8"?>
<svg width="15px" height="17px" viewBox="0 0 15 17" version="1.1" xmlns="http://www.w3.org/2000/svg" xmlns:xlink="http://www.w3.org/1999/xlink">
    <title>389973B3-CA8D-4F43-A6CA-C6811ED3C041</title>
    <defs>
        <path d="M8.7791099,12.0202279 L5.4641099,10.1882279 C4.57847248,11.1476513 3.20413134,11.4610871 1.99825806,10.9786592 C0.792384785,10.4962314 0,9.31596393 0,8.0022279 C0,6.68849188 0.792384785,5.50822445 1.99825806,5.02579657 C3.20413134,4.54336868 4.57847248,4.85680456 5.4641099,5.8162279 L8.77989937,3.9842279 C8.39042798,2.42188499 9.2081588,0.809802488 10.6885838,0.221428939 C12.1690087,-0.366944611 13.8502346,0.251963594 14.6127718,1.66603686 C15.3753091,3.08011012 14.9812458,4.84815698 13.6929796,5.79287582 C12.4047134,6.73759467 10.6241839,6.5642328 9.53700464,5.3882279 L6.22121516,7.2202279 C6.34847987,7.73331523 6.34847987,8.27034058 6.22121516,8.7834279 L9.53621516,10.6154279 C10.6233944,9.43942301 12.4039239,9.26606114 13.6921901,10.21078 C14.9804563,11.1554988 15.3745196,12.9235457 14.6119824,14.337619 C13.8494451,15.7516922 12.1682192,16.3706004 10.6877943,15.7822269 C9.20736933,15.1938533 8.3896385,13.5817708 8.7791099,12.0194279 L8.7791099,12.0202279 Z M3.15805727,9.6018279 C4.03008582,9.6018279 4.73700464,8.8854835 4.73700464,8.0018279 C4.73700464,7.11817231 4.03008582,6.4018279 3.15805727,6.4018279 C2.28602872,6.4018279 1.5791099,7.11817231 1.5791099,8.0018279 C1.5791099,8.8854835 2.28602872,9.6018279 3.15805727,9.6018279 Z M11.8422678,4.8018279 C12.7142963,4.8018279 13.4212152,4.0854835 13.4212152,3.2018279 C13.4212152,2.31817231 12.7142963,1.6018279 11.8422678,1.6018279 C10.9702392,1.6018279 10.2633204,2.31817231 10.2633204,3.2018279 C10.2633204,4.0854835 10.9702392,4.8018279 11.8422678,4.8018279 Z M11.8422678,14.4018279 C12.7142963,14.4018279 13.4212152,13.6854835 13.4212152,12.8018279 C13.4212152,11.9181723 12.7142963,11.2018279 11.8422678,11.2018279 C10.9702392,11.2018279 10.2633204,11.9181723 10.2633204,12.8018279 C10.2633204,13.6854835 10.9702392,14.4018279 11.8422678,14.4018279 Z" id="path-1"></path>
    </defs>
    <g id="Design-System" stroke="none" stroke-width="1" fill="none" fill-rule="evenodd">
        <g transform="translate(-460.000000, -3325.000000)" id="Icons">
            <g transform="translate(112.000000, 3243.500000)">
                <g id="icons/icon-map-share" transform="translate(348.000000, 82.000000)">
                    <mask id="mask-2" fill="white">
                        <use xlink:href="#path-1"></use>
                    </mask>
                    <use id="Shape" fill="#ffffff" fill-rule="nonzero" xlink:href="#path-1"></use>
                </g>
            </g>
        </g>
    </g>
</svg>