<?xml version="1.0" encoding="UTF-8" standalone="no"?>
<svg
   xmlns:dc="http://purl.org/dc/elements/1.1/"
   xmlns:cc="http://creativecommons.org/ns#"
   xmlns:rdf="http://www.w3.org/1999/02/22-rdf-syntax-ns#"
   xmlns:svg="http://www.w3.org/2000/svg"
   xmlns="http://www.w3.org/2000/svg"
   xmlns:xlink="http://www.w3.org/1999/xlink"
   xmlns:sodipodi="http://sodipodi.sourceforge.net/DTD/sodipodi-0.dtd"
   xmlns:inkscape="http://www.inkscape.org/namespaces/inkscape"
   width="16px"
   height="17px"
   viewBox="0 0 16 17"
   version="1.1"
   id="svg16"
   sodipodi:docname="icon-nav-zoomout.svg"
   inkscape:version="1.0.2 (1.0.2+r75+1)">
  <metadata
     id="metadata20">
    <rdf:RDF>
      <cc:Work
         rdf:about="">
        <dc:format>image/svg+xml</dc:format>
        <dc:type
           rdf:resource="http://purl.org/dc/dcmitype/StillImage" />
        <dc:title>868F82E4-F587-480B-9E5F-CF51DB8E9FB4</dc:title>
      </cc:Work>
    </rdf:RDF>
  </metadata>
  <sodipodi:namedview
     pagecolor="#ffffff"
     bordercolor="#666666"
     borderopacity="1"
     objecttolerance="10"
     gridtolerance="10"
     guidetolerance="10"
     inkscape:pageopacity="0"
     inkscape:pageshadow="2"
     inkscape:window-width="1920"
     inkscape:window-height="1016"
     id="namedview18"
     showgrid="false"
     inkscape:zoom="8.9636183"
     inkscape:cx="-14.395516"
     inkscape:cy="10.748943"
     inkscape:window-x="1920"
     inkscape:window-y="27"
     inkscape:window-maximized="1"
     inkscape:current-layer="icons/icon-plus" />
  <title
     id="title2">868F82E4-F587-480B-9E5F-CF51DB8E9FB4</title>
  <defs
     id="defs5">
    <path
       d="M9.2,0.8 L9.2,6.799 L15.2,6.8 L15.2,9.2 L9.2,9.199 L9.2,15.2 L6.8,15.2 L6.8,9.199 L0.8,9.2 L0.8,6.8 L6.8,6.799 L6.8,0.8 L9.2,0.8 Z"
       id="path-1" />
    <mask
       id="mask-2-3"
       fill="#ffffff">
      <use
         xlink:href="#path-1"
         id="use7-6"
         x="0"
         y="0"
         width="100%"
         height="100%" />
    </mask>
    <mask
       id="mask-2-35"
       fill="#ffffff">
      <use
         xlink:href="#path-1"
         id="use7-62"
         x="0"
         y="0"
         width="100%"
         height="100%" />
    </mask>
    <mask
       id="mask-2-36"
       fill="#ffffff">
      <use
         xlink:href="#path-1"
         id="use7-0"
         x="0"
         y="0"
         width="100%"
         height="100%" />
    </mask>
  </defs>
  <g
     id="Design-System"
     stroke="none"
     stroke-width="1"
     fill="none"
     fill-rule="evenodd">
    <g
       transform="translate(-621.000000, -3325.000000)"
       id="Icons">
      <g
         transform="translate(112.000000, 3243.500000)"
         id="g12">
        <g
           id="icons/icon-plus"
           transform="translate(509.000000, 82.000000)">
          <mask
             id="mask-2"
             fill="white">
            <use
               xlink:href="#path-1"
               id="use7" />
          </mask>
          <path
             d="M 15.2,6.8 V 9.2 H 0.8 V 6.8 Z"
             id="Combined-Shape"
             style="fill:#ffffff;fill-opacity:1"
             sodipodi:nodetypes="ccccc" />
        </g>
      </g>
    </g>
  </g>
</svg>
