<?xml version="1.0" encoding="UTF-8"?>
<svg width="16px" height="17px" viewBox="0 0 16 17" version="1.1" xmlns="http://www.w3.org/2000/svg" xmlns:xlink="http://www.w3.org/1999/xlink">
    <title>868F82E4-F587-480B-9E5F-CF51DB8E9FB4</title>
    <defs>
        <path d="M9.2,0.8 L9.2,6.799 L15.2,6.8 L15.2,9.2 L9.2,9.199 L9.2,15.2 L6.8,15.2 L6.8,9.199 L0.8,9.2 L0.8,6.8 L6.8,6.799 L6.8,0.8 L9.2,0.8 Z" id="path-1"></path>
    </defs>
    <g id="Design-System" stroke="none" stroke-width="1" fill="none" fill-rule="evenodd">
        <g transform="translate(-621.000000, -3325.000000)" id="Icons">
            <g transform="translate(112.000000, 3243.500000)">
                <g id="icons/icon-plus" transform="translate(509.000000, 82.000000)">
                    <mask id="mask-2" fill="white">
                        <use xlink:href="#path-1"></use>
                    </mask>
                    <use id="Combined-Shape" fill="#ffffff" xlink:href="#path-1"></use>
                </g>
            </g>
        </g>
    </g>
</svg>