<?xml version="1.0" encoding="UTF-8" standalone="no"?>
<svg
   id="Calque_2"
   data-name="Calque 2"
   viewBox="0 0 30.27 30.27"
   version="1.1"
   sodipodi:docname="brussels.svg"
   inkscape:version="1.1.2 (0a00cf5339, 2022-02-04)"
   xmlns:inkscape="http://www.inkscape.org/namespaces/inkscape"
   xmlns:sodipodi="http://sodipodi.sourceforge.net/DTD/sodipodi-0.dtd"
   xmlns="http://www.w3.org/2000/svg"
   xmlns:svg="http://www.w3.org/2000/svg">
  <sodipodi:namedview
     id="namedview14"
     pagecolor="#ffffff"
     bordercolor="#666666"
     borderopacity="1.0"
     inkscape:pageshadow="2"
     inkscape:pageopacity="0.0"
     inkscape:pagecheckerboard="0"
     showgrid="false"
     inkscape:zoom="25.834159"
     inkscape:cx="14.689853"
     inkscape:cy="15.115646"
     inkscape:window-width="1525"
     inkscape:window-height="1134"
     inkscape:window-x="26"
     inkscape:window-y="23"
     inkscape:window-maximized="0"
     inkscape:current-layer="g10" />
  <defs
     id="defs4">
    <style
       id="style2">
      .cls-1 {
        stroke: #00799c;
        stroke-linecap: round;
        stroke-linejoin: round;
        stroke-width: 2px;
      }

      .cls-1, .cls-2 {
        fill: none;
      }
    </style>
  </defs>
  <g
     id="Calque_2-2"
     data-name="Calque 2">
    <g
       id="g10">
      <polygon
         class="cls-1"
         points="9.51 9.19 12.23 7.73 15.15 8.35 17.31 6.4 18.98 8.01 19.18 10.3 18.56 11.97 21.41 13.78 22.39 17.33 21.06 17.4 20.37 18.72 22.87 20.32 15.71 23.87 15.57 22.9 11.46 22.06 10.62 19.7 9.65 19.49 10.07 17.96 8.26 18.58 5.54 17.26 6.59 15.45 8.4 15.1 8.68 12.88 7.91 11.97 9.3 10.3 9.51 9.19"
         id="polygon6"
         style="stroke:#096077;stroke-opacity:1" />
      <circle
         class="cls-2"
         cx="15.13"
         cy="15.13"
         r="15.13"
         id="circle8" />
    </g>
  </g>
</svg>
