<?xml version="1.0" encoding="UTF-8"?>
<svg id="Calque_2" data-name="Calque 2" xmlns="http://www.w3.org/2000/svg" viewBox="0 0 37.3 37.3">
  <defs>
    <style>
      .cls-1 {
        fill: #9fd1b6;
      }

      .cls-2 {
        stroke: #00799c;
        stroke-linecap: round;
        stroke-linejoin: round;
        stroke-width: 4px;
      }

      .cls-2, .cls-3 {
        fill: none;
      }
    </style>
  </defs>
  <g id="Calque_2-2" data-name="Calque 2">
    <g>
      <rect class="cls-3" width="37.3" height="37.3"/>
      <polygon class="cls-1" points="9.56 7.61 14.57 4.91 19.97 6.07 23.95 2.47 27.04 5.43 27.42 9.67 26.27 12.75 31.54 16.09 33.34 22.65 30.89 22.77 29.61 25.22 34.24 28.17 21 34.73 20.74 32.93 13.16 31.38 11.62 27.02 9.82 26.63 10.59 23.8 7.25 24.96 2.24 22.52 4.16 19.18 7.51 18.53 8.02 14.42 6.61 12.75 9.18 9.67 9.56 7.61"/>
      <line class="cls-2" x1="23.85" y1="24.76" x2="23.85" y2="24.76"/>
      <line class="cls-2" x1="27.52" y1="16.2" x2="27.52" y2="16.2"/>
      <line class="cls-2" x1="20.79" y1="11.01" x2="20.79" y2="11.01"/>
      <line class="cls-2" x1="14.37" y1="12.84" x2="14.37" y2="12.84"/>
      <line class="cls-2" x1="11.62" y1="21.4" x2="11.62" y2="21.4"/>
    </g>
  </g>
</svg>