<?xml version="1.0" encoding="UTF-8"?>
<svg id="Calque_2" data-name="Calque 2" xmlns="http://www.w3.org/2000/svg" viewBox="0 0 37.3 37.3">
  <defs>
    <style>
      .cls-1 {
        fill: #9fd1b6;
      }

      .cls-2 {
        fill: none;
      }

      .cls-3 {
        fill: #00799c;
      }
    </style>
  </defs>
  <g id="Calque_2-2" data-name="Calque 2">
    <g>
      <rect class="cls-2" width="37.3" height="37.3"/>
      <polygon class="cls-1" points="9.56 7.61 14.57 4.91 19.97 6.07 23.95 2.47 27.04 5.43 27.42 9.67 26.27 12.75 31.54 16.09 33.34 22.65 30.89 22.77 29.61 25.22 34.24 28.17 21 34.73 20.74 32.93 13.16 31.38 11.62 27.02 9.82 26.63 10.59 23.8 7.25 24.96 2.24 22.52 4.16 19.18 7.51 18.53 8.02 14.42 6.61 12.75 9.18 9.67 9.56 7.61"/>
      <path class="cls-3" d="M24,26.92s.04-.03,.07-.05l-.79,1.58c-.49,.99-.09,2.19,.89,2.68,.29,.14,.59,.21,.89,.21,.73,0,1.44-.4,1.79-1.11l1.22-2.45c.26-.51,.28-1.11,.07-1.64l-1.55-3.87,.19-.45,2.57-3.14c.12-.14,.21-.3,.29-.48l1.12-2.6-3.42-2.17-1.26,2.94-2.57,3.14c-.12,.14-.21,.3-.29,.48l-1.51,3.53-2.92,1.22c-.47,.2-.85,.57-1.06,1.03l-1.22,2.75c-.45,1.01,0,2.19,1.02,2.64,.26,.12,.54,.17,.81,.17,.77,0,1.5-.44,1.83-1.19l.9-2.02,2.93-1.22Z"/>
    </g>
  </g>
</svg>