<?xml version="1.0" encoding="UTF-8"?>
<glyph name="uniF39A" format="2">
  <advance width="1727"/>
  <unicode hex="F39A"/>
  <outline>
    <contour>
      <point x="1430" y="1360" type="line"/>
      <point x="1490" y="1360" type="line"/>
      <point x="1550" y="1360" type="line"/>
      <point x="1550" y="677.5" type="line"/>
      <point x="1550" y="-5" type="line"/>
      <point x="1490" y="-5" type="line"/>
      <point x="1430" y="-5" type="line"/>
      <point x="1430" y="677.5" type="line"/>
    </contour>
    <contour>
      <point x="191.615" y="386.615"/>
      <point x="195.524" y="390.524" type="qcurve" smooth="yes"/>
      <point x="199.433" y="394.433"/>
      <point x="197.076" y="397.216" type="qcurve" smooth="yes"/>
      <point x="194.719" y="400"/>
      <point x="187.5" y="400" type="qcurve" smooth="yes"/>
      <point x="177.909" y="400"/>
      <point x="173.954" y="472.594" type="qcurve" smooth="yes"/>
      <point x="170" y="545.189"/>
      <point x="170" y="721.273" type="qcurve" smooth="yes"/>
      <point x="170" y="1042.55"/>
      <point x="179.105" y="1066.27" type="qcurve" smooth="yes"/>
      <point x="184.967" y="1081.55"/>
      <point x="232.758" y="1085.78" type="qcurve" smooth="yes"/>
      <point x="280.549" y="1090"/>
      <point x="447.5" y="1090" type="qcurve" smooth="yes"/>
      <point x="614.451" y="1090"/>
      <point x="662.242" y="1085.78" type="qcurve" smooth="yes"/>
      <point x="710.033" y="1081.55"/>
      <point x="715.895" y="1066.27" type="qcurve" smooth="yes"/>
      <point x="725" y="1042.55"/>
      <point x="725" y="721.249" type="qcurve" smooth="yes"/>
      <point x="725" y="399.951" type="line"/>
      <point x="596.32" y="257.475" type="line"/>
      <point x="543.24" y="198.704"/>
      <point x="499.795" y="156.852" type="qcurve" smooth="yes"/>
      <point x="456.35" y="115"/>
      <point x="448.423" y="115" type="qcurve" smooth="yes"/>
      <point x="440.496" y="115"/>
      <point x="399.137" y="154.076" type="qcurve" smooth="yes"/>
      <point x="357.778" y="193.151"/>
      <point x="307.626" y="248.024" type="qcurve" smooth="yes"/>
      <point x="257.475" y="302.896"/>
      <point x="224.545" y="344.756" type="qcurve" smooth="yes"/>
    </contour>
    <contour>
      <point x="270.927" y="400.927"/>
      <point x="263.6" y="393.6" type="qcurve" smooth="yes"/>
      <point x="260.578" y="390.578"/>
      <point x="286.512" y="357.725" type="qcurve" smooth="yes"/>
      <point x="312.446" y="324.871"/>
      <point x="351.887" y="281.759" type="qcurve" smooth="yes"/>
      <point x="447.5" y="177.244" type="line"/>
      <point x="546.751" y="284.872" type="line"/>
      <point x="646.002" y="392.5" type="line"/>
      <point x="458.464" y="396.713" type="line"/>
    </contour>
    <contour>
      <point x="665" y="460"/>
      <point x="665" y="745" type="qcurve" smooth="yes"/>
      <point x="665" y="1030" type="line"/>
      <point x="447.5" y="1030" type="line"/>
      <point x="230" y="1030" type="line"/>
      <point x="230" y="729.599" type="line"/>
      <point x="230" y="429.198" type="line"/>
      <point x="447.538" y="433.349" type="line"/>
      <point x="537.273" y="435.061"/>
      <point x="601.163" y="439.585" type="qcurve" smooth="yes"/>
      <point x="665.054" y="444.109"/>
      <point x="665.038" y="448.75" type="qcurve" smooth="yes"/>
    </contour>
    <contour>
      <point x="740.173" y="802.998"/>
      <point x="749.105" y="826.273" type="qcurve" smooth="yes"/>
      <point x="754.14" y="839.394"/>
      <point x="773.896" y="844.697" type="qcurve" smooth="yes"/>
      <point x="793.651" y="850"/>
      <point x="837.5" y="850" type="qcurve" smooth="yes"/>
      <point x="898.557" y="850"/>
      <point x="918.648" y="835.16" type="qcurve" smooth="yes"/>
      <point x="938.739" y="820.32"/>
      <point x="919.602" y="789.356" type="qcurve" smooth="yes"/>
      <point x="907.305" y="769.459"/>
      <point x="914.613" y="758.069" type="qcurve" smooth="yes"/>
      <point x="921.921" y="746.679"/>
      <point x="942.033" y="754.396" type="qcurve" smooth="yes"/>
      <point x="950.726" y="757.732"/>
      <point x="954.563" y="766.239" type="qcurve" smooth="yes"/>
      <point x="958.4" y="774.746"/>
      <point x="955.096" y="783.356" type="qcurve" smooth="yes"/>
      <point x="943.203" y="814.348"/>
      <point x="976.811" y="830.115" type="qcurve" smooth="yes"/>
      <point x="1010.42" y="845.881"/>
      <point x="1085.22" y="844.401" type="qcurve" smooth="yes"/>
      <point x="1151.36" y="843.092"/>
      <point x="1169.92" y="836.393" type="qcurve" smooth="yes"/>
      <point x="1188.48" y="829.694"/>
      <point x="1204.39" y="801.379" type="qcurve" smooth="yes"/>
      <point x="1225.6" y="763.644"/>
      <point x="1212.64" y="736.568" type="qcurve" smooth="yes"/>
      <point x="1199.68" y="709.493"/>
      <point x="1148.68" y="685" type="qcurve" smooth="yes"/>
      <point x="1129.36" y="675.719"/>
      <point x="1113.04" y="659.195" type="qcurve" smooth="yes"/>
      <point x="1096.72" y="642.672"/>
      <point x="1093.13" y="628.75" type="qcurve" smooth="yes"/>
      <point x="1087.2" y="605.749"/>
      <point x="1070.87" y="597.732" type="qcurve" smooth="yes"/>
      <point x="1054.54" y="589.714"/>
      <point x="1038.21" y="599.736" type="qcurve" smooth="yes"/>
      <point x="1021.87" y="609.758"/>
      <point x="1015.91" y="633.488" type="qcurve" smooth="yes"/>
      <point x="1006.25" y="671.976" type="line"/>
      <point x="988.989" y="637.238" type="line"/>
      <point x="977.544" y="614.208"/>
      <point x="956.685" y="607.617" type="qcurve" smooth="yes"/>
      <point x="935.826" y="601.027"/>
      <point x="865.206" y="598.13" type="qcurve" smooth="yes"/>
      <point x="799.882" y="595.45"/>
      <point x="777.477" y="599.313" type="qcurve" smooth="yes"/>
      <point x="755.072" y="603.176"/>
      <point x="749.343" y="618.107" type="qcurve" smooth="yes"/>
      <point x="740.358" y="641.521"/>
      <point x="740.266" y="722.26" type="qcurve" smooth="yes"/>
    </contour>
    <contour>
      <point x="740" y="987.454"/>
      <point x="740" y="1067.5" type="qcurve" smooth="yes"/>
      <point x="740" y="1104.55"/>
      <point x="741.626" y="1125.05" type="qcurve" smooth="yes"/>
      <point x="743.252" y="1145.55"/>
      <point x="747.038" y="1161.38" type="qcurve" smooth="yes"/>
      <point x="750.824" y="1177.21"/>
      <point x="760.458" y="1183.43" type="qcurve" smooth="yes"/>
      <point x="770.091" y="1189.66"/>
      <point x="782.568" y="1192.33" type="qcurve" smooth="yes"/>
      <point x="795.046" y="1195"/>
      <point x="817.591" y="1195" type="qcurve" smooth="yes"/>
      <point x="888.335" y="1195"/>
      <point x="919.7" y="1170.59" type="qcurve" smooth="yes"/>
      <point x="933.557" y="1159.8"/>
      <point x="927.035" y="1149.25" type="qcurve" smooth="yes"/>
      <point x="916.841" y="1132.75"/>
      <point x="929.134" y="1134.37" type="qcurve" smooth="yes"/>
      <point x="950.859" y="1137.22"/>
      <point x="986.136" y="1172.5" type="qcurve" smooth="yes"/>
      <point x="1020.38" y="1206.74"/>
      <point x="1050.9" y="1208.19" type="qcurve" smooth="yes"/>
      <point x="1081.41" y="1209.64"/>
      <point x="1120.52" y="1178.88" type="qcurve" smooth="yes"/>
      <point x="1146.39" y="1158.53"/>
      <point x="1154.8" y="1157.23" type="qcurve" smooth="yes"/>
      <point x="1163.22" y="1155.93"/>
      <point x="1169.15" y="1171.38" type="qcurve" smooth="yes"/>
      <point x="1178.79" y="1196.5"/>
      <point x="1207.3" y="1193.95" type="qcurve" smooth="yes"/>
      <point x="1235.81" y="1191.41"/>
      <point x="1255.22" y="1163.7" type="qcurve" smooth="yes"/>
      <point x="1277.15" y="1132.39" type="line"/>
      <point x="1287.09" y="1163.7" type="line"/>
      <point x="1295.84" y="1191.27"/>
      <point x="1323.44" y="1194.1" type="qcurve" smooth="yes"/>
      <point x="1351.05" y="1196.94"/>
      <point x="1360.9" y="1171.27" type="qcurve" smooth="yes"/>
      <point x="1369.74" y="1148.23"/>
      <point x="1369.74" y="1067.5" type="qcurve" smooth="yes"/>
      <point x="1369.74" y="986.774"/>
      <point x="1360.9" y="963.727" type="qcurve" smooth="yes"/>
      <point x="1351.13" y="938.284"/>
      <point x="1322.61" y="940.986" type="qcurve" smooth="yes"/>
      <point x="1294.08" y="943.688"/>
      <point x="1279.22" y="971.465" type="qcurve" smooth="yes"/>
      <point x="1262.38" y="1002.93" type="line"/>
      <point x="1240.34" y="971.465" type="line"/>
      <point x="1219.26" y="941.375"/>
      <point x="1197.96" y="941.268" type="qcurve" smooth="yes"/>
      <point x="1176.65" y="941.16"/>
      <point x="1167.15" y="971.095" type="qcurve" smooth="yes"/>
      <point x="1160.36" y="992.496"/>
      <point x="1154.75" y="993.66" type="qcurve" smooth="yes"/>
      <point x="1149.14" y="994.824"/>
      <point x="1131.17" y="978.563" type="qcurve" smooth="yes"/>
      <point x="1120.4" y="968.816"/>
      <point x="1109.08" y="965.19" type="qcurve" smooth="yes"/>
      <point x="1097.76" y="961.563"/>
      <point x="1092.63" y="966.217" type="qcurve" smooth="yes"/>
      <point x="1087.89" y="970.517"/>
      <point x="1087.1" y="968.936" type="qcurve" smooth="yes"/>
      <point x="1086.18" y="967.088"/>
      <point x="1090.98" y="958.75" type="qcurve" smooth="yes"/>
      <point x="1101.7" y="940.13"/>
      <point x="1074.73" y="939.583" type="qcurve" smooth="yes"/>
      <point x="1034.63" y="938.771"/>
      <point x="994.198" y="967.589" type="qcurve" smooth="yes"/>
      <point x="991.785" y="969.31"/>
      <point x="989.523" y="971.089" type="qcurve" smooth="yes"/>
      <point x="950" y="1002.18" type="line"/>
      <point x="910.477" y="971.089" type="line"/>
      <point x="874.118" y="942.489"/>
      <point x="816.692" y="939.869" type="qcurve" smooth="yes"/>
      <point x="759.265" y="937.249"/>
      <point x="749.105" y="963.727" type="qcurve" smooth="yes"/>
    </contour>
    <contour>
      <point x="860" y="1120"/>
      <point x="845" y="1120" type="qcurve" smooth="yes"/>
      <point x="830" y="1120"/>
      <point x="830" y="1075" type="qcurve" smooth="yes"/>
      <point x="830" y="1030"/>
      <point x="845" y="1030" type="qcurve" smooth="yes"/>
      <point x="860" y="1030"/>
      <point x="860" y="1075" type="qcurve" smooth="yes"/>
    </contour>
    <contour>
      <point x="1124.38" y="1074.62"/>
      <point x="1142" y="1057" type="qcurve" smooth="yes"/>
      <point x="1156.55" y="1042.45"/>
      <point x="1158.92" y="1061.65" type="qcurve" smooth="yes"/>
      <point x="1159.84" y="1069.13"/>
      <point x="1159.77" y="1083.25" type="qcurve" smooth="yes"/>
      <point x="1159.61" y="1114.54"/>
      <point x="1154.47" y="1114.61" type="qcurve" smooth="yes"/>
      <point x="1151.37" y="1114.65"/>
      <point x="1145.23" y="1105" type="qcurve" smooth="yes"/>
      <point x="1136.38" y="1091.09"/>
      <point x="1127.87" y="1090.37" type="qcurve" smooth="yes"/>
      <point x="1119.36" y="1089.66"/>
      <point x="1100.66" y="1101.25" type="qcurve" smooth="yes"/>
      <point x="1070.41" y="1120"/>
      <point x="1056.81" y="1120" type="qcurve" smooth="yes"/>
      <point x="1042.7" y="1120"/>
      <point x="1034.7" y="1096.51" type="qcurve" smooth="yes"/>
      <point x="1026.7" y="1073.01"/>
      <point x="1034.18" y="1053.52" type="qcurve" smooth="yes"/>
      <point x="1039" y="1040.96"/>
      <point x="1055.22" y="1036.4" type="qcurve" smooth="yes"/>
      <point x="1071.43" y="1031.83"/>
      <point x="1085.72" y="1037.4" type="qcurve" smooth="yes"/>
      <point x="1100" y="1042.97"/>
      <point x="1100" y="1055.69" type="qcurve" smooth="yes"/>
      <point x="1100" y="1073.86"/>
      <point x="1112.19" y="1074.24" type="qcurve" smooth="yes"/>
    </contour>
  </outline>
</glyph>
