<?xml version="1.0" encoding="UTF-8"?>
<glyph name="uniF3D2" format="2">
  <advance width="1727"/>
  <unicode hex="F3D2"/>
  <outline>
    <contour>
      <point x="999.57" y="1075.7"/>
      <point x="1018.21" y="1046.99" type="qcurve" smooth="yes"/>
      <point x="1027.25" y="1032.82"/>
      <point x="1048.98" y="1003.67" type="qcurve" smooth="yes"/>
      <point x="1070.7" y="974.519"/>
      <point x="1087.75" y="951.373" type="qcurve" smooth="yes"/>
      <point x="1104.79" y="928.228"/>
      <point x="1123.43" y="893.574" type="qcurve" smooth="yes"/>
      <point x="1142.08" y="858.921"/>
      <point x="1150.82" y="829.241" type="qcurve" smooth="yes"/>
      <point x="1159.56" y="799.562"/>
      <point x="1158.43" y="762.145" type="qcurve" smooth="yes"/>
      <point x="1157.29" y="724.728"/>
      <point x="1141.04" y="691.256" type="qcurve" smooth="yes"/>
      <point x="1124.78" y="657.784"/>
      <point x="1087.17" y="620.344" type="qcurve" smooth="yes"/>
      <point x="1049.56" y="582.905"/>
      <point x="991.22" y="548.68" type="qcurve"/>
      <point x="993.995" y="552.633"/>
      <point x="998.403" y="559.579" type="qcurve" smooth="yes"/>
      <point x="1002.81" y="566.525"/>
      <point x="1012.75" y="586.869" type="qcurve" smooth="yes"/>
      <point x="1022.69" y="607.214"/>
      <point x="1028.48" y="626.268" type="qcurve" smooth="yes"/>
      <point x="1034.28" y="645.321"/>
      <point x="1034.62" y="669.532" type="qcurve" smooth="yes"/>
      <point x="1034.97" y="693.743"/>
      <point x="1025.4" y="712.38" type="qcurve" smooth="yes"/>
      <point x="1015.76" y="731.148"/>
      <point x="994.899" y="759.525" type="qcurve" smooth="yes"/>
      <point x="974.036" y="787.902"/>
      <point x="959.6" y="808.508" type="qcurve" smooth="yes"/>
      <point x="945.164" y="829.114"/>
      <point x="935.422" y="862.352" type="qcurve" smooth="yes"/>
      <point x="925.68" y="895.589"/>
      <point x="930.06" y="931.86" type="qcurve"/>
      <point x="928.031" y="930.988"/>
      <point x="924.627" y="929.104" type="qcurve" smooth="yes"/>
      <point x="921.224" y="927.22"/>
      <point x="911.984" y="919.306" type="qcurve" smooth="yes"/>
      <point x="902.744" y="911.391"/>
      <point x="895.045" y="901.201" type="qcurve" smooth="yes"/>
      <point x="887.346" y="891.01"/>
      <point x="879.381" y="872.458" type="qcurve" smooth="yes"/>
      <point x="871.415" y="853.906"/>
      <point x="867.729" y="831.885" type="qcurve" smooth="yes"/>
      <point x="864.043" y="809.864"/>
      <point x="865.66" y="777.151" type="qcurve" smooth="yes"/>
      <point x="867.278" y="744.437"/>
      <point x="876.09" y="706.99" type="qcurve"/>
      <point x="869.84" y="709.217"/>
      <point x="859.985" y="713.991" type="qcurve" smooth="yes"/>
      <point x="850.131" y="718.765"/>
      <point x="829.228" y="737.759" type="qcurve" smooth="yes"/>
      <point x="808.326" y="756.753"/>
      <point x="798.73" y="780.74" type="qcurve"/>
      <point x="797.346" y="776.417"/>
      <point x="795.414" y="768.522" type="qcurve" smooth="yes"/>
      <point x="793.483" y="760.628"/>
      <point x="790.993" y="735.621" type="qcurve" smooth="yes"/>
      <point x="788.504" y="710.614"/>
      <point x="789.918" y="684.965" type="qcurve" smooth="yes"/>
      <point x="791.332" y="659.317"/>
      <point x="800.61" y="622.275" type="qcurve" smooth="yes"/>
      <point x="809.888" y="585.234"/>
      <point x="827.52" y="550.48" type="qcurve"/>
      <point x="820.613" y="553.801"/>
      <point x="809.271" y="560.16" type="qcurve" smooth="yes"/>
      <point x="797.929" y="566.518"/>
      <point x="768.796" y="589.024" type="qcurve" smooth="yes"/>
      <point x="739.662" y="611.53"/>
      <point x="717.508" y="637.015" type="qcurve" smooth="yes"/>
      <point x="695.353" y="662.499"/>
      <point x="677.158" y="703.862" type="qcurve" smooth="yes"/>
      <point x="658.962" y="745.224"/>
      <point x="658.47" y="789.521" type="qcurve" smooth="yes"/>
      <point x="657.977" y="833.818"/>
      <point x="683.196" y="893.723" type="qcurve" smooth="yes"/>
      <point x="708.415" y="953.628"/>
      <point x="762.75" y="1016.41" type="qcurve"/>
      <point x="763.363" y="1005.12"/>
      <point x="765.353" y="987.651" type="qcurve" smooth="yes"/>
      <point x="767.342" y="970.181"/>
      <point x="778.741" y="935.426" type="qcurve" smooth="yes"/>
      <point x="790.139" y="900.671"/>
      <point x="807.73" y="888.68" type="qcurve"/>
      <point x="806.592" y="888.111"/>
      <point x="803.309" y="903.215" type="qcurve" smooth="yes"/>
      <point x="800.025" y="918.32"/>
      <point x="798.341" y="944.066" type="qcurve" smooth="yes"/>
      <point x="796.658" y="969.813"/>
      <point x="797.901" y="1002.47" type="qcurve" smooth="yes"/>
      <point x="799.144" y="1035.12"/>
      <point x="809.899" y="1072.05" type="qcurve" smooth="yes"/>
      <point x="820.653" y="1108.98"/>
      <point x="839.219" y="1143.89" type="qcurve" smooth="yes"/>
      <point x="857.784" y="1178.79"/>
      <point x="893.771" y="1211.61" type="qcurve" smooth="yes"/>
      <point x="929.759" y="1244.43"/>
      <point x="978.63" y="1266.46" type="qcurve"/>
      <point x="978.63" y="1266.46" type="line"/>
      <point x="977.538" y="1261.7"/>
      <point x="976.113" y="1253.21" type="qcurve" smooth="yes"/>
      <point x="974.688" y="1244.71"/>
      <point x="973.633" y="1219.01" type="qcurve" smooth="yes"/>
      <point x="972.578" y="1193.31"/>
      <point x="975.277" y="1168.27" type="qcurve" smooth="yes"/>
      <point x="977.976" y="1143.23"/>
      <point x="988.773" y="1109.46" type="qcurve" smooth="yes"/>
    </contour>
    <contour>
      <point x="735.59" y="474.92" type="line"/>
      <point x="735.59" y="420.95" type="line"/>
      <point x="1089.98" y="420.95" type="line"/>
      <point x="1089.98" y="474.92" type="line"/>
    </contour>
  </outline>
</glyph>
