<?xml version="1.0" encoding="UTF-8"?>
<glyph name="uniF157" format="2">
  <advance width="1026"/>
  <unicode hex="F157"/>
  <outline>
    <contour>
      <point x="603" y="0" type="qcurve" smooth="yes"/>
      <point x="431" y="0" type="line" smooth="yes"/>
      <point x="418" y="0"/>
      <point x="399" y="18"/>
      <point x="399" y="32" type="qcurve" smooth="yes"/>
      <point x="399" y="362" type="line"/>
      <point x="111" y="362" type="line" smooth="yes"/>
      <point x="98" y="362"/>
      <point x="79" y="380"/>
      <point x="79" y="394" type="qcurve" smooth="yes"/>
      <point x="79" y="497" type="line" smooth="yes"/>
      <point x="79" y="510"/>
      <point x="98" y="529"/>
      <point x="111" y="529" type="qcurve" smooth="yes"/>
      <point x="399" y="529" type="line"/>
      <point x="399" y="614" type="line"/>
      <point x="111" y="614" type="line" smooth="yes"/>
      <point x="98" y="614"/>
      <point x="79" y="632"/>
      <point x="79" y="646" type="qcurve" smooth="yes"/>
      <point x="79" y="750" type="line" smooth="yes"/>
      <point x="79" y="763"/>
      <point x="98" y="782"/>
      <point x="111" y="782" type="qcurve" smooth="yes"/>
      <point x="325" y="782" type="line"/>
      <point x="4" y="1360" type="line" smooth="yes"/>
      <point x="-4" y="1376"/>
      <point x="4" y="1392" type="qcurve" smooth="yes"/>
      <point x="14" y="1408"/>
      <point x="32" y="1408" type="qcurve" smooth="yes"/>
      <point x="226" y="1408" type="line" smooth="yes"/>
      <point x="245" y="1408"/>
      <point x="255" y="1390" type="qcurve" smooth="yes"/>
      <point x="470" y="965" type="line" smooth="yes"/>
      <point x="489" y="927"/>
      <point x="526" y="840" type="qcurve"/>
      <point x="536" y="864"/>
      <point x="577" y="952"/>
      <point x="584" y="969" type="qcurve" smooth="yes"/>
      <point x="775" y="1389" type="line" smooth="yes"/>
      <point x="783" y="1408"/>
      <point x="804" y="1408" type="qcurve" smooth="yes"/>
      <point x="995" y="1408" type="line" smooth="yes"/>
      <point x="1012" y="1408"/>
      <point x="1022" y="1392" type="qcurve" smooth="yes"/>
      <point x="1031" y="1378"/>
      <point x="1023" y="1361" type="qcurve" smooth="yes"/>
      <point x="710" y="782" type="line"/>
      <point x="925" y="782" type="line" smooth="yes"/>
      <point x="938" y="782"/>
      <point x="957" y="763"/>
      <point x="957" y="750" type="qcurve" smooth="yes"/>
      <point x="957" y="646" type="line" smooth="yes"/>
      <point x="957" y="632"/>
      <point x="938" y="614"/>
      <point x="925" y="614" type="qcurve" smooth="yes"/>
      <point x="635" y="614" type="line"/>
      <point x="635" y="529" type="line"/>
      <point x="925" y="529" type="line" smooth="yes"/>
      <point x="938" y="529"/>
      <point x="957" y="510"/>
      <point x="957" y="497" type="qcurve" smooth="yes"/>
      <point x="957" y="394" type="line" smooth="yes"/>
      <point x="957" y="380"/>
      <point x="938" y="362"/>
      <point x="925" y="362" type="qcurve" smooth="yes"/>
      <point x="635" y="362" type="line"/>
      <point x="635" y="32" type="line" smooth="yes"/>
      <point x="635" y="19"/>
      <point x="616" y="0"/>
    </contour>
  </outline>
</glyph>
