<?xml version="1.0" encoding="UTF-8"?>
<glyph name="uniF2B6" format="2">
  <advance width="1792"/>
  <unicode hex="F2B6"/>
  <outline>
    <contour>
      <point x="1792" y="882" type="qcurve" smooth="yes"/>
      <point x="1792" y="-96" type="line" smooth="yes"/>
      <point x="1792" y="-162"/>
      <point x="1698" y="-256"/>
      <point x="1632" y="-256" type="qcurve" smooth="yes"/>
      <point x="160" y="-256" type="line" smooth="yes"/>
      <point x="94" y="-256"/>
      <point x="0" y="-162"/>
      <point x="0" y="-96" type="qcurve" smooth="yes"/>
      <point x="0" y="882" type="line" smooth="yes"/>
      <point x="0" y="897"/>
      <point x="11" y="906" type="qcurve" smooth="yes"/>
      <point x="19" y="913"/>
      <point x="81" y="968"/>
      <point x="102" y="985"/>
      <point x="172" y="1043"/>
      <point x="242" y="1096"/>
      <point x="364" y="1189"/>
      <point x="529" y="1310"/>
      <point x="639" y="1390" type="qcurve" smooth="yes"/>
      <point x="644" y="1394"/>
      <point x="739" y="1466"/>
      <point x="787" y="1499"/>
      <point x="867" y="1536"/>
      <point x="925" y="1536"/>
      <point x="1005" y="1499"/>
      <point x="1055" y="1465"/>
      <point x="1147" y="1395"/>
      <point x="1153" y="1390" type="qcurve" smooth="yes"/>
      <point x="1263" y="1310"/>
      <point x="1428" y="1189"/>
      <point x="1550" y="1096"/>
      <point x="1620" y="1043"/>
      <point x="1690" y="985"/>
      <point x="1711" y="968"/>
      <point x="1773" y="913"/>
      <point x="1781" y="906" type="qcurve" smooth="yes"/>
      <point x="1792" y="897"/>
    </contour>
    <contour>
      <point x="1228" y="297" type="qcurve" smooth="yes"/>
      <point x="1491" y="488"/>
      <point x="1573" y="549" type="qcurve" smooth="yes"/>
      <point x="1584" y="557"/>
      <point x="1587" y="582"/>
      <point x="1579" y="593" type="qcurve" smooth="yes"/>
      <point x="1541" y="645" type="line" smooth="yes"/>
      <point x="1533" y="656"/>
      <point x="1507" y="659"/>
      <point x="1496" y="651" type="qcurve" smooth="yes"/>
      <point x="1265" y="482"/>
      <point x="1153" y="401" type="qcurve" smooth="yes"/>
      <point x="1148" y="398"/>
      <point x="1054" y="326"/>
      <point x="1005" y="293"/>
      <point x="925" y="256"/>
      <point x="867" y="256"/>
      <point x="787" y="293"/>
      <point x="738" y="326"/>
      <point x="644" y="398"/>
      <point x="639" y="401" type="qcurve" smooth="yes"/>
      <point x="453" y="535"/>
      <point x="296" y="651" type="qcurve" smooth="yes"/>
      <point x="285" y="659"/>
      <point x="259" y="656"/>
      <point x="251" y="645" type="qcurve" smooth="yes"/>
      <point x="213" y="593" type="line" smooth="yes"/>
      <point x="205" y="582"/>
      <point x="208" y="557"/>
      <point x="219" y="549" type="qcurve" smooth="yes"/>
      <point x="301" y="488"/>
      <point x="564" y="297" type="qcurve" smooth="yes"/>
      <point x="574" y="289"/>
      <point x="654" y="229"/>
      <point x="704" y="195"/>
      <point x="782" y="150"/>
      <point x="859" y="128"/>
      <point x="933" y="128"/>
      <point x="1010" y="150"/>
      <point x="1091" y="197"/>
      <point x="1139" y="229"/>
      <point x="1221" y="292"/>
    </contour>
  </outline>
</glyph>
