<?xml version="1.0" encoding="UTF-8"?>
<glyph name="uniF03A" format="2">
  <advance width="1792"/>
  <unicode hex="F03A"/>
  <outline>
    <contour>
      <point x="256" y="224" type="qcurve" smooth="yes"/>
      <point x="256" y="32" type="line" smooth="yes"/>
      <point x="256" y="19"/>
      <point x="237" y="0"/>
      <point x="224" y="0" type="qcurve" smooth="yes"/>
      <point x="32" y="0" type="line" smooth="yes"/>
      <point x="19" y="0"/>
      <point x="0" y="19"/>
      <point x="0" y="32" type="qcurve" smooth="yes"/>
      <point x="0" y="224" type="line" smooth="yes"/>
      <point x="0" y="237"/>
      <point x="19" y="256"/>
      <point x="32" y="256" type="qcurve" smooth="yes"/>
      <point x="224" y="256" type="line" smooth="yes"/>
      <point x="237" y="256"/>
      <point x="256" y="237"/>
    </contour>
    <contour>
      <point x="256" y="608" type="qcurve" smooth="yes"/>
      <point x="256" y="416" type="line" smooth="yes"/>
      <point x="256" y="403"/>
      <point x="237" y="384"/>
      <point x="224" y="384" type="qcurve" smooth="yes"/>
      <point x="32" y="384" type="line" smooth="yes"/>
      <point x="19" y="384"/>
      <point x="0" y="403"/>
      <point x="0" y="416" type="qcurve" smooth="yes"/>
      <point x="0" y="608" type="line" smooth="yes"/>
      <point x="0" y="621"/>
      <point x="19" y="640"/>
      <point x="32" y="640" type="qcurve" smooth="yes"/>
      <point x="224" y="640" type="line" smooth="yes"/>
      <point x="237" y="640"/>
      <point x="256" y="621"/>
    </contour>
    <contour>
      <point x="256" y="992" type="qcurve" smooth="yes"/>
      <point x="256" y="800" type="line" smooth="yes"/>
      <point x="256" y="787"/>
      <point x="237" y="768"/>
      <point x="224" y="768" type="qcurve" smooth="yes"/>
      <point x="32" y="768" type="line" smooth="yes"/>
      <point x="19" y="768"/>
      <point x="0" y="787"/>
      <point x="0" y="800" type="qcurve" smooth="yes"/>
      <point x="0" y="992" type="line" smooth="yes"/>
      <point x="0" y="1005"/>
      <point x="19" y="1024"/>
      <point x="32" y="1024" type="qcurve" smooth="yes"/>
      <point x="224" y="1024" type="line" smooth="yes"/>
      <point x="237" y="1024"/>
      <point x="256" y="1005"/>
    </contour>
    <contour>
      <point x="1792" y="224" type="qcurve" smooth="yes"/>
      <point x="1792" y="32" type="line" smooth="yes"/>
      <point x="1792" y="19"/>
      <point x="1773" y="0"/>
      <point x="1760" y="0" type="qcurve" smooth="yes"/>
      <point x="416" y="0" type="line" smooth="yes"/>
      <point x="403" y="0"/>
      <point x="384" y="19"/>
      <point x="384" y="32" type="qcurve" smooth="yes"/>
      <point x="384" y="224" type="line" smooth="yes"/>
      <point x="384" y="237"/>
      <point x="403" y="256"/>
      <point x="416" y="256" type="qcurve" smooth="yes"/>
      <point x="1760" y="256" type="line" smooth="yes"/>
      <point x="1773" y="256"/>
      <point x="1792" y="237"/>
    </contour>
    <contour>
      <point x="256" y="1376" type="qcurve" smooth="yes"/>
      <point x="256" y="1184" type="line" smooth="yes"/>
      <point x="256" y="1171"/>
      <point x="237" y="1152"/>
      <point x="224" y="1152" type="qcurve" smooth="yes"/>
      <point x="32" y="1152" type="line" smooth="yes"/>
      <point x="19" y="1152"/>
      <point x="0" y="1171"/>
      <point x="0" y="1184" type="qcurve" smooth="yes"/>
      <point x="0" y="1376" type="line" smooth="yes"/>
      <point x="0" y="1389"/>
      <point x="19" y="1408"/>
      <point x="32" y="1408" type="qcurve" smooth="yes"/>
      <point x="224" y="1408" type="line" smooth="yes"/>
      <point x="237" y="1408"/>
      <point x="256" y="1389"/>
    </contour>
    <contour>
      <point x="1792" y="608" type="qcurve" smooth="yes"/>
      <point x="1792" y="416" type="line" smooth="yes"/>
      <point x="1792" y="403"/>
      <point x="1773" y="384"/>
      <point x="1760" y="384" type="qcurve" smooth="yes"/>
      <point x="416" y="384" type="line" smooth="yes"/>
      <point x="403" y="384"/>
      <point x="384" y="403"/>
      <point x="384" y="416" type="qcurve" smooth="yes"/>
      <point x="384" y="608" type="line" smooth="yes"/>
      <point x="384" y="621"/>
      <point x="403" y="640"/>
      <point x="416" y="640" type="qcurve" smooth="yes"/>
      <point x="1760" y="640" type="line" smooth="yes"/>
      <point x="1773" y="640"/>
      <point x="1792" y="621"/>
    </contour>
    <contour>
      <point x="1792" y="992" type="qcurve" smooth="yes"/>
      <point x="1792" y="800" type="line" smooth="yes"/>
      <point x="1792" y="787"/>
      <point x="1773" y="768"/>
      <point x="1760" y="768" type="qcurve" smooth="yes"/>
      <point x="416" y="768" type="line" smooth="yes"/>
      <point x="403" y="768"/>
      <point x="384" y="787"/>
      <point x="384" y="800" type="qcurve" smooth="yes"/>
      <point x="384" y="992" type="line" smooth="yes"/>
      <point x="384" y="1005"/>
      <point x="403" y="1024"/>
      <point x="416" y="1024" type="qcurve" smooth="yes"/>
      <point x="1760" y="1024" type="line" smooth="yes"/>
      <point x="1773" y="1024"/>
      <point x="1792" y="1005"/>
    </contour>
    <contour>
      <point x="1792" y="1376" type="qcurve" smooth="yes"/>
      <point x="1792" y="1184" type="line" smooth="yes"/>
      <point x="1792" y="1171"/>
      <point x="1773" y="1152"/>
      <point x="1760" y="1152" type="qcurve" smooth="yes"/>
      <point x="416" y="1152" type="line" smooth="yes"/>
      <point x="403" y="1152"/>
      <point x="384" y="1171"/>
      <point x="384" y="1184" type="qcurve" smooth="yes"/>
      <point x="384" y="1376" type="line" smooth="yes"/>
      <point x="384" y="1389"/>
      <point x="403" y="1408"/>
      <point x="416" y="1408" type="qcurve" smooth="yes"/>
      <point x="1760" y="1408" type="line" smooth="yes"/>
      <point x="1773" y="1408"/>
      <point x="1792" y="1389"/>
    </contour>
  </outline>
</glyph>
