<?xml version="1.0" encoding="UTF-8"?>
<glyph name="uniF17C" format="2">
  <advance width="1523"/>
  <unicode hex="F17C"/>
  <outline>
    <contour>
      <point x="657" y="1125" type="qcurve"/>
      <point x="646" y="1124"/>
      <point x="637" y="1105"/>
      <point x="633" y="1105" type="qcurve" smooth="yes"/>
      <point x="628" y="1104"/>
      <point x="628" y="1110" type="qcurve" smooth="yes"/>
      <point x="628" y="1122"/>
      <point x="647" y="1125" type="qcurve" smooth="yes"/>
      <point x="652" y="1125"/>
    </contour>
    <contour>
      <point x="744" y="1111" type="qcurve" smooth="yes"/>
      <point x="740" y="1110"/>
      <point x="725" y="1125"/>
      <point x="715" y="1122" type="qcurve"/>
      <point x="739" y="1133"/>
      <point x="747" y="1120" type="qcurve" smooth="yes"/>
      <point x="750" y="1114"/>
    </contour>
    <contour>
      <point x="393" y="684" type="qcurve" smooth="yes"/>
      <point x="389" y="685"/>
      <point x="385" y="677"/>
      <point x="380" y="660"/>
      <point x="377" y="655" type="qcurve" smooth="yes"/>
      <point x="374" y="650"/>
      <point x="367" y="642" type="qcurve" smooth="yes"/>
      <point x="357" y="631"/>
      <point x="366" y="630" type="qcurve" smooth="yes"/>
      <point x="370" y="629"/>
      <point x="387" y="645"/>
      <point x="391" y="655" type="qcurve" smooth="yes"/>
      <point x="392" y="658"/>
      <point x="394" y="666"/>
      <point x="396" y="670"/>
      <point x="397" y="675"/>
      <point x="397" y="678"/>
      <point x="397" y="681"/>
      <point x="395" y="683"/>
    </contour>
    <contour>
      <point x="1248" y="325" type="qcurve"/>
      <point x="1248" y="343"/>
      <point x="1193" y="367" type="qcurve"/>
      <point x="1197" y="382"/>
      <point x="1204" y="407"/>
      <point x="1207" y="434"/>
      <point x="1210" y="450"/>
      <point x="1208" y="479"/>
      <point x="1208" y="489"/>
      <point x="1201" y="523"/>
      <point x="1200" y="530"/>
      <point x="1191" y="573"/>
      <point x="1190" y="578" type="qcurve" smooth="yes"/>
      <point x="1180" y="626"/>
      <point x="1106" y="736"/>
      <point x="1071" y="756" type="qcurve"/>
      <point x="1095" y="736"/>
      <point x="1128" y="673" type="qcurve" smooth="yes"/>
      <point x="1215" y="511"/>
      <point x="1182" y="395" type="qcurve" smooth="yes"/>
      <point x="1171" y="355"/>
      <point x="1132" y="353" type="qcurve" smooth="yes"/>
      <point x="1101" y="349"/>
      <point x="1086" y="394"/>
      <point x="1085" y="516"/>
      <point x="1074" y="562" type="qcurve" smooth="yes"/>
      <point x="1065" y="601"/>
      <point x="1044" y="661"/>
      <point x="1026" y="692"/>
      <point x="1013" y="710"/>
      <point x="1000" y="722"/>
      <point x="999" y="723" type="qcurve" smooth="yes"/>
      <point x="985" y="785"/>
      <point x="951" y="867"/>
      <point x="926" y="897"/>
      <point x="904" y="933"/>
      <point x="900" y="955" type="qcurve" smooth="yes"/>
      <point x="896" y="976"/>
      <point x="916" y="1041"/>
      <point x="905" y="1075"/>
      <point x="866" y="1083" type="qcurve" smooth="yes"/>
      <point x="851" y="1086"/>
      <point x="792" y="1116"/>
      <point x="786" y="1117" type="qcurve" smooth="yes"/>
      <point x="778" y="1118"/>
      <point x="772" y="1168"/>
      <point x="794" y="1220"/>
      <point x="819" y="1221" type="qcurve" smooth="yes"/>
      <point x="856" y="1224"/>
      <point x="884" y="1158"/>
      <point x="874" y="1133" type="qcurve" smooth="yes"/>
      <point x="863" y="1114"/>
      <point x="881" y="1099"/>
      <point x="902" y="1106" type="qcurve" smooth="yes"/>
      <point x="915" y="1110"/>
      <point x="915" y="1174"/>
      <point x="915" y="1179" type="qcurve" smooth="yes"/>
      <point x="910" y="1209"/>
      <point x="893" y="1249"/>
      <point x="868" y="1270"/>
      <point x="846" y="1279"/>
      <point x="830" y="1282" type="qcurve"/>
      <point x="723" y="1274"/>
      <point x="741" y="1148" type="qcurve" smooth="yes"/>
      <point x="741" y="1133"/>
      <point x="740" y="1133" type="qcurve" smooth="yes"/>
      <point x="731" y="1142"/>
      <point x="690" y="1145"/>
      <point x="665" y="1141"/>
      <point x="662" y="1148" type="qcurve" smooth="yes"/>
      <point x="663" y="1205"/>
      <point x="629" y="1271"/>
      <point x="601" y="1272" type="qcurve" smooth="yes"/>
      <point x="574" y="1273"/>
      <point x="545" y="1216"/>
      <point x="543" y="1185" type="qcurve" smooth="yes"/>
      <point x="542" y="1170"/>
      <point x="551" y="1126"/>
      <point x="568" y="1095"/>
      <point x="575" y="1097" type="qcurve" smooth="yes"/>
      <point x="585" y="1100"/>
      <point x="591" y="1111" type="qcurve" smooth="yes"/>
      <point x="595" y="1120"/>
      <point x="584" y="1119" type="qcurve" smooth="yes"/>
      <point x="577" y="1119"/>
      <point x="560" y="1148"/>
      <point x="559" y="1167" type="qcurve" smooth="yes"/>
      <point x="558" y="1189"/>
      <point x="578" y="1219"/>
      <point x="602" y="1218" type="qcurve" smooth="yes"/>
      <point x="619" y="1218"/>
      <point x="639" y="1176"/>
      <point x="638" y="1140"/>
      <point x="637" y="1136" type="qcurve" smooth="yes"/>
      <point x="615" y="1121"/>
      <point x="606" y="1107" type="qcurve" smooth="yes"/>
      <point x="598" y="1095"/>
      <point x="559" y="1072"/>
      <point x="558" y="1071" type="qcurve" smooth="yes"/>
      <point x="545" y="1057"/>
      <point x="540" y="1031"/>
      <point x="550" y="1026" type="qcurve" smooth="yes"/>
      <point x="564" y="1018"/>
      <point x="586" y="995"/>
      <point x="596" y="980"/>
      <point x="623" y="969"/>
      <point x="645" y="968" type="qcurve" smooth="yes"/>
      <point x="692" y="966"/>
      <point x="747" y="983" type="qcurve" smooth="yes"/>
      <point x="749" y="984"/>
      <point x="791" y="996"/>
      <point x="818" y="1005"/>
      <point x="850" y="1022"/>
      <point x="855" y="1031" type="qcurve" smooth="yes"/>
      <point x="864" y="1045"/>
      <point x="875" y="1039" type="qcurve" smooth="yes"/>
      <point x="880" y="1036"/>
      <point x="883" y="1025"/>
      <point x="874" y="1012"/>
      <point x="862" y="1009" type="qcurve" smooth="yes"/>
      <point x="842" y="1003"/>
      <point x="769" y="972"/>
      <point x="760" y="968" type="qcurve" smooth="yes"/>
      <point x="716" y="949"/>
      <point x="690" y="945" type="qcurve" smooth="yes"/>
      <point x="665" y="940"/>
      <point x="611" y="947" type="qcurve" smooth="yes"/>
      <point x="601" y="949"/>
      <point x="602" y="945" type="qcurve" smooth="yes"/>
      <point x="603" y="941"/>
      <point x="619" y="926" type="qcurve" smooth="yes"/>
      <point x="644" y="903"/>
      <point x="686" y="904" type="qcurve" smooth="yes"/>
      <point x="703" y="905"/>
      <point x="741" y="917"/>
      <point x="775" y="933"/>
      <point x="808" y="952"/>
      <point x="835" y="967"/>
      <point x="857" y="976"/>
      <point x="870" y="972"/>
      <point x="872" y="963" type="qcurve" smooth="yes"/>
      <point x="872" y="961"/>
      <point x="870" y="956"/>
      <point x="864" y="951"/>
      <point x="858" y="947"/>
      <point x="847" y="941"/>
      <point x="840" y="938"/>
      <point x="827" y="931"/>
      <point x="824" y="930" type="qcurve" smooth="yes"/>
      <point x="796" y="916"/>
      <point x="717" y="856"/>
      <point x="663" y="830"/>
      <point x="641" y="842" type="qcurve" smooth="yes"/>
      <point x="620" y="853"/>
      <point x="578" y="915" type="qcurve" smooth="yes"/>
      <point x="556" y="946"/>
      <point x="553" y="937" type="qcurve" smooth="yes"/>
      <point x="552" y="934"/>
      <point x="552" y="927" type="qcurve" smooth="yes"/>
      <point x="552" y="902"/>
      <point x="522" y="839"/>
      <point x="493" y="791"/>
      <point x="480" y="723"/>
      <point x="498" y="694" type="qcurve"/>
      <point x="475" y="688"/>
      <point x="396" y="520"/>
      <point x="388" y="463" type="qcurve" smooth="yes"/>
      <point x="386" y="445"/>
      <point x="387" y="343"/>
      <point x="381" y="335" type="qcurve" smooth="yes"/>
      <point x="373" y="311"/>
      <point x="352" y="332" type="qcurve" smooth="yes"/>
      <point x="320" y="363"/>
      <point x="316" y="426" type="qcurve" smooth="yes"/>
      <point x="314" y="454"/>
      <point x="320" y="482" type="qcurve" smooth="yes"/>
      <point x="324" y="501"/>
      <point x="319" y="500" type="qcurve" smooth="yes"/>
      <point x="317" y="499"/>
      <point x="315" y="495" type="qcurve" smooth="yes"/>
      <point x="279" y="430"/>
      <point x="325" y="329" type="qcurve" smooth="yes"/>
      <point x="330" y="317"/>
      <point x="370" y="285"/>
      <point x="374" y="281" type="qcurve" smooth="yes"/>
      <point x="394" y="258"/>
      <point x="562" y="123"/>
      <point x="571" y="114" type="qcurve" smooth="yes"/>
      <point x="587" y="99"/>
      <point x="590" y="53"/>
      <point x="559" y="13"/>
      <point x="529" y="10" type="qcurve"/>
      <point x="537" y="-5"/>
      <point x="579" y="-64"/>
      <point x="593" y="-113"/>
      <point x="593" y="-159" type="qcurve"/>
      <point x="639" y="-135"/>
      <point x="600" y="-67" type="qcurve" smooth="yes"/>
      <point x="596" y="-59"/>
      <point x="583" y="-43"/>
      <point x="577" y="-35"/>
      <point x="578" y="-33" type="qcurve" smooth="yes"/>
      <point x="581" y="-28"/>
      <point x="601" y="-19"/>
      <point x="611" y="-26" type="qcurve" smooth="yes"/>
      <point x="657" y="-78"/>
      <point x="777" y="-62" type="qcurve" smooth="yes"/>
      <point x="910" y="-47"/>
      <point x="954" y="25" type="qcurve" smooth="yes"/>
      <point x="977" y="63"/>
      <point x="988" y="55" type="qcurve" smooth="yes"/>
      <point x="1000" y="49"/>
      <point x="998" y="3" type="qcurve" smooth="yes"/>
      <point x="997" y="-22"/>
      <point x="975" y="-89" type="qcurve" smooth="yes"/>
      <point x="966" y="-112"/>
      <point x="972" y="-141"/>
      <point x="993" y="-142" type="qcurve"/>
      <point x="996" y="-123"/>
      <point x="1019" y="-7"/>
      <point x="1021" y="25" type="qcurve" smooth="yes"/>
      <point x="1023" y="46"/>
      <point x="1006" y="151"/>
      <point x="1008" y="240"/>
      <point x="1030" y="266" type="qcurve" smooth="yes"/>
      <point x="1045" y="284"/>
      <point x="1081" y="284" type="qcurve"/>
      <point x="1082" y="321"/>
      <point x="1149" y="353"/>
      <point x="1227" y="342"/>
    </contour>
    <contour>
      <point x="620" y="1152" type="qcurve" smooth="yes"/>
      <point x="623" y="1169"/>
      <point x="612" y="1195"/>
      <point x="606" y="1197" type="qcurve" smooth="yes"/>
      <point x="597" y="1199"/>
      <point x="597" y="1190" type="qcurve" smooth="yes"/>
      <point x="599" y="1185"/>
      <point x="602" y="1184" type="qcurve" smooth="yes"/>
      <point x="612" y="1184"/>
      <point x="609" y="1169" type="qcurve" smooth="yes"/>
      <point x="606" y="1149"/>
      <point x="617" y="1149" type="qcurve" smooth="yes"/>
      <point x="620" y="1149"/>
    </contour>
    <contour>
      <point x="1039" y="955" type="qcurve" smooth="yes"/>
      <point x="1037" y="963"/>
      <point x="1028" y="970"/>
      <point x="1011" y="973"/>
      <point x="1005" y="977" type="qcurve" smooth="yes"/>
      <point x="1000" y="980"/>
      <point x="991" y="990"/>
      <point x="986" y="996"/>
      <point x="980" y="1003"/>
      <point x="978" y="1004"/>
      <point x="975" y="1002" type="qcurve" smooth="yes"/>
      <point x="961" y="986"/>
      <point x="1003" y="931"/>
      <point x="1021" y="927" type="qcurve" smooth="yes"/>
      <point x="1030" y="926"/>
      <point x="1041" y="944"/>
    </contour>
    <contour>
      <point x="861" y="1168" type="qcurve" smooth="yes"/>
      <point x="861" y="1179"/>
      <point x="851" y="1196"/>
      <point x="839" y="1204"/>
      <point x="836" y="1203" type="qcurve" smooth="yes"/>
      <point x="822" y="1202"/>
      <point x="829" y="1196" type="qcurve" smooth="yes"/>
      <point x="831" y="1195"/>
      <point x="833" y="1194" type="qcurve" smooth="yes"/>
      <point x="847" y="1190"/>
      <point x="851" y="1163" type="qcurve" smooth="yes"/>
      <point x="851" y="1160"/>
      <point x="859" y="1165" type="qcurve" smooth="yes"/>
      <point x="861" y="1167"/>
    </contour>
    <contour>
      <point x="915" y="1401" type="qcurve" smooth="yes"/>
      <point x="915" y="1403"/>
      <point x="910" y="1409"/>
      <point x="897" y="1417"/>
      <point x="894" y="1419" type="qcurve" smooth="yes"/>
      <point x="879" y="1434"/>
      <point x="870" y="1434" type="qcurve" smooth="yes"/>
      <point x="861" y="1433"/>
      <point x="856" y="1420"/>
      <point x="859" y="1407"/>
      <point x="857" y="1401" type="qcurve" smooth="yes"/>
      <point x="856" y="1397"/>
      <point x="846" y="1384"/>
      <point x="844" y="1379"/>
      <point x="848" y="1373" type="qcurve" smooth="yes"/>
      <point x="852" y="1370"/>
      <point x="860" y="1376"/>
      <point x="874" y="1388"/>
      <point x="882" y="1391" type="qcurve" smooth="yes"/>
      <point x="883" y="1392"/>
      <point x="899" y="1392"/>
      <point x="913" y="1396"/>
    </contour>
    <contour>
      <point x="1480" y="60" type="qcurve" smooth="yes"/>
      <point x="1500" y="48"/>
      <point x="1522" y="23"/>
      <point x="1524" y="0"/>
      <point x="1517" y="-22"/>
      <point x="1493" y="-44"/>
      <point x="1470" y="-61"/>
      <point x="1433" y="-81"/>
      <point x="1407" y="-94"/>
      <point x="1369" y="-112"/>
      <point x="1361" y="-116" type="qcurve" smooth="yes"/>
      <point x="1323" y="-135"/>
      <point x="1228" y="-209"/>
      <point x="1200" y="-236" type="qcurve" smooth="yes"/>
      <point x="1183" y="-252"/>
      <point x="1081" y="-259"/>
      <point x="1043" y="-241" type="qcurve" smooth="yes"/>
      <point x="1025" y="-232"/>
      <point x="1002" y="-203"/>
      <point x="992" y="-181"/>
      <point x="958" y="-164"/>
      <point x="928" y="-163" type="qcurve" smooth="yes"/>
      <point x="884" y="-162"/>
      <point x="798" y="-162" type="qcurve" smooth="yes"/>
      <point x="779" y="-162"/>
      <point x="703" y="-165"/>
      <point x="683" y="-166" type="qcurve" smooth="yes"/>
      <point x="639" y="-167"/>
      <point x="568" y="-195"/>
      <point x="532" y="-227"/>
      <point x="481" y="-252"/>
      <point x="453" y="-251" type="qcurve" smooth="yes"/>
      <point x="424" y="-250"/>
      <point x="260" y="-190"/>
      <point x="196" y="-177" type="qcurve" smooth="yes"/>
      <point x="177" y="-173"/>
      <point x="113" y="-162"/>
      <point x="77" y="-155"/>
      <point x="34" y="-143"/>
      <point x="10" y="-126"/>
      <point x="5" y="-115" type="qcurve" smooth="yes"/>
      <point x="-5" y="-92"/>
      <point x="29" y="-5"/>
      <point x="30" y="6" type="qcurve" smooth="yes"/>
      <point x="31" y="22"/>
      <point x="21" y="70"/>
      <point x="11" y="107"/>
      <point x="12" y="143"/>
      <point x="22" y="152" type="qcurve" smooth="yes"/>
      <point x="36" y="164"/>
      <point x="122" y="168"/>
      <point x="139" y="178" type="qcurve" smooth="yes"/>
      <point x="169" y="196"/>
      <point x="193" y="230"/>
      <point x="193" y="264" type="qcurve"/>
      <point x="214" y="191"/>
      <point x="161" y="158" type="qcurve" smooth="yes"/>
      <point x="129" y="138"/>
      <point x="78" y="143" type="qcurve" smooth="yes"/>
      <point x="44" y="146"/>
      <point x="35" y="133" type="qcurve" smooth="yes"/>
      <point x="22" y="118"/>
      <point x="40" y="76" type="qcurve" smooth="yes"/>
      <point x="42" y="70"/>
      <point x="54" y="46"/>
      <point x="59" y="34"/>
      <point x="63" y="12"/>
      <point x="62" y="1" type="qcurve" smooth="yes"/>
      <point x="62" y="-14"/>
      <point x="28" y="-82"/>
      <point x="31" y="-96" type="qcurve" smooth="yes"/>
      <point x="34" y="-113"/>
      <point x="68" y="-122" type="qcurve" smooth="yes"/>
      <point x="88" y="-128"/>
      <point x="217" y="-153"/>
      <point x="252" y="-161" type="qcurve" smooth="yes"/>
      <point x="276" y="-167"/>
      <point x="376" y="-199"/>
      <point x="441" y="-213"/>
      <point x="464" y="-210" type="qcurve" smooth="yes"/>
      <point x="507" y="-204"/>
      <point x="550" y="-160"/>
      <point x="553" y="-108"/>
      <point x="535" y="-43"/>
      <point x="515" y="-4"/>
      <point x="505" y="13" type="qcurve" smooth="yes"/>
      <point x="384" y="203"/>
      <point x="336" y="255" type="qcurve" smooth="yes"/>
      <point x="268" y="329"/>
      <point x="223" y="295" type="qcurve" smooth="yes"/>
      <point x="212" y="286"/>
      <point x="208" y="310" type="qcurve" smooth="yes"/>
      <point x="205" y="326"/>
      <point x="206" y="348" type="qcurve" smooth="yes"/>
      <point x="207" y="377"/>
      <point x="225" y="423"/>
      <point x="255" y="471"/>
      <point x="262" y="489" type="qcurve" smooth="yes"/>
      <point x="270" y="510"/>
      <point x="307" y="612"/>
      <point x="329" y="666"/>
      <point x="367" y="734"/>
      <point x="387" y="754" type="qcurve" smooth="yes"/>
      <point x="497" y="897"/>
      <point x="511" y="949" type="qcurve"/>
      <point x="499" y="1061"/>
      <point x="495" y="1259" type="qcurve" smooth="yes"/>
      <point x="493" y="1349"/>
      <point x="545" y="1472"/>
      <point x="625" y="1515" type="qcurve" smooth="yes"/>
      <point x="664" y="1536"/>
      <point x="729" y="1536" type="qcurve" smooth="yes"/>
      <point x="782" y="1537"/>
      <point x="888" y="1508"/>
      <point x="924" y="1481" type="qcurve" smooth="yes"/>
      <point x="981" y="1439"/>
      <point x="1050" y="1280"/>
      <point x="1045" y="1212" type="qcurve" smooth="yes"/>
      <point x="1040" y="1117"/>
      <point x="1075" y="998" type="qcurve" smooth="yes"/>
      <point x="1109" y="885"/>
      <point x="1208" y="780" type="qcurve" smooth="yes"/>
      <point x="1263" y="721"/>
      <point x="1352" y="513"/>
      <point x="1367" y="426" type="qcurve" smooth="yes"/>
      <point x="1375" y="377"/>
      <point x="1369" y="306"/>
      <point x="1351" y="266"/>
      <point x="1340" y="264" type="qcurve" smooth="yes"/>
      <point x="1330" y="262"/>
      <point x="1303" y="228"/>
      <point x="1276" y="191"/>
      <point x="1222" y="161"/>
      <point x="1188" y="162" type="qcurve" smooth="yes"/>
      <point x="1170" y="163"/>
      <point x="1143" y="171"/>
      <point x="1125" y="190"/>
      <point x="1116" y="202"/>
      <point x="1102" y="231"/>
      <point x="1100" y="236" type="qcurve" smooth="yes"/>
      <point x="1078" y="273"/>
      <point x="1040" y="259"/>
      <point x="1022" y="175"/>
      <point x="1038" y="120" type="qcurve" smooth="yes"/>
      <point x="1058" y="50"/>
      <point x="1039" y="-75" type="qcurve" smooth="yes"/>
      <point x="1029" y="-140"/>
      <point x="1085" y="-211"/>
      <point x="1175" y="-206"/>
      <point x="1215" y="-173" type="qcurve" smooth="yes"/>
      <point x="1274" y="-124"/>
      <point x="1335" y="-89"/>
      <point x="1408" y="-64" type="qcurve" smooth="yes"/>
      <point x="1461" y="-46"/>
      <point x="1509" y="-9"/>
      <point x="1498" y="23"/>
      <point x="1459" y="48"/>
      <point x="1427" y="59" type="qcurve" smooth="yes"/>
      <point x="1394" y="70"/>
      <point x="1361" y="144"/>
      <point x="1364" y="215"/>
      <point x="1378" y="227" type="qcurve"/>
      <point x="1379" y="196"/>
      <point x="1393" y="145"/>
      <point x="1408" y="115"/>
      <point x="1434" y="88"/>
      <point x="1450" y="77"/>
      <point x="1477" y="62"/>
    </contour>
  </outline>
</glyph>
