<?xml version="1.0" encoding="UTF-8"?>
<glyph name="uniF241" format="2">
  <advance width="2304"/>
  <unicode hex="F241"/>
  <outline>
    <contour>
      <point x="256" y="256" type="line"/>
      <point x="256" y="1024" type="line"/>
      <point x="1536" y="1024" type="line"/>
      <point x="1536" y="256" type="line"/>
    </contour>
    <contour>
      <point x="2176" y="960" type="line"/>
      <point x="2229" y="960"/>
      <point x="2304" y="885"/>
      <point x="2304" y="832" type="qcurve" smooth="yes"/>
      <point x="2304" y="448" type="line" smooth="yes"/>
      <point x="2304" y="395"/>
      <point x="2229" y="320"/>
      <point x="2176" y="320" type="qcurve"/>
      <point x="2176" y="160" type="line" smooth="yes"/>
      <point x="2176" y="94"/>
      <point x="2082" y="0"/>
      <point x="2016" y="0" type="qcurve" smooth="yes"/>
      <point x="160" y="0" type="line" smooth="yes"/>
      <point x="94" y="0"/>
      <point x="0" y="94"/>
      <point x="0" y="160" type="qcurve" smooth="yes"/>
      <point x="0" y="1120" type="line" smooth="yes"/>
      <point x="0" y="1186"/>
      <point x="94" y="1280"/>
      <point x="160" y="1280" type="qcurve" smooth="yes"/>
      <point x="2016" y="1280" type="line" smooth="yes"/>
      <point x="2082" y="1280"/>
      <point x="2176" y="1186"/>
      <point x="2176" y="1120" type="qcurve" smooth="yes"/>
    </contour>
    <contour>
      <point x="2176" y="448" type="line"/>
      <point x="2176" y="832" type="line"/>
      <point x="2048" y="832" type="line"/>
      <point x="2048" y="1120" type="line" smooth="yes"/>
      <point x="2048" y="1134"/>
      <point x="2030" y="1152"/>
      <point x="2016" y="1152" type="qcurve" smooth="yes"/>
      <point x="160" y="1152" type="line" smooth="yes"/>
      <point x="146" y="1152"/>
      <point x="128" y="1134"/>
      <point x="128" y="1120" type="qcurve" smooth="yes"/>
      <point x="128" y="160" type="line" smooth="yes"/>
      <point x="128" y="146"/>
      <point x="146" y="128"/>
      <point x="160" y="128" type="qcurve" smooth="yes"/>
      <point x="2016" y="128" type="line" smooth="yes"/>
      <point x="2030" y="128"/>
      <point x="2048" y="146"/>
      <point x="2048" y="160" type="qcurve" smooth="yes"/>
      <point x="2048" y="448" type="line"/>
    </contour>
  </outline>
</glyph>
