<?xml version="1.0" encoding="UTF-8"?>
<glyph name="uniF239" format="2">
  <advance width="1536"/>
  <unicode hex="F239"/>
  <outline>
    <contour>
      <point x="1088" y="1536" type="line" smooth="yes"/>
      <point x="1273" y="1536"/>
      <point x="1536" y="1349"/>
      <point x="1536" y="1216" type="qcurve" smooth="yes"/>
      <point x="1536" y="320" type="line" smooth="yes"/>
      <point x="1536" y="190"/>
      <point x="1285" y="6"/>
      <point x="1105" y="1" type="qcurve"/>
      <point x="1318" y="-201" type="line" smooth="yes"/>
      <point x="1334" y="-216"/>
      <point x="1318" y="-256"/>
      <point x="1296" y="-256" type="qcurve" smooth="yes"/>
      <point x="240" y="-256" type="line" smooth="yes"/>
      <point x="218" y="-256"/>
      <point x="202" y="-216"/>
      <point x="218" y="-201" type="qcurve" smooth="yes"/>
      <point x="431" y="1" type="line"/>
      <point x="251" y="6"/>
      <point x="0" y="190"/>
      <point x="0" y="320" type="qcurve" smooth="yes"/>
      <point x="0" y="1216" type="line" smooth="yes"/>
      <point x="0" y="1349"/>
      <point x="263" y="1536"/>
      <point x="448" y="1536" type="qcurve" smooth="yes"/>
    </contour>
    <contour>
      <point x="354" y="224"/>
      <point x="448" y="318"/>
      <point x="448" y="450"/>
      <point x="354" y="544"/>
      <point x="222" y="544"/>
      <point x="128" y="450"/>
      <point x="128" y="318"/>
      <point x="222" y="224"/>
    </contour>
    <contour>
      <point x="704" y="768" type="line"/>
      <point x="704" y="1280" type="line"/>
      <point x="160" y="1280" type="line"/>
      <point x="160" y="768" type="line"/>
    </contour>
    <contour>
      <point x="1314" y="224"/>
      <point x="1408" y="318"/>
      <point x="1408" y="450"/>
      <point x="1314" y="544"/>
      <point x="1182" y="544"/>
      <point x="1088" y="450"/>
      <point x="1088" y="318"/>
      <point x="1182" y="224"/>
    </contour>
    <contour>
      <point x="1408" y="768" type="line"/>
      <point x="1408" y="1280" type="line"/>
      <point x="832" y="1280" type="line"/>
      <point x="832" y="768" type="line"/>
    </contour>
  </outline>
</glyph>
