<?xml version="1.0" encoding="UTF-8"?>
<glyph name="uniF293" format="2">
  <advance width="1322"/>
  <unicode hex="F293"/>
  <outline>
    <contour>
      <point x="734" y="483" type="line"/>
      <point x="882" y="335" type="line"/>
      <point x="733" y="186" type="line"/>
    </contour>
    <contour>
      <point x="733" y="1094" type="line"/>
      <point x="882" y="945" type="line"/>
      <point x="734" y="797" type="line"/>
    </contour>
    <contour>
      <point x="603" y="-130" type="line"/>
      <point x="1067" y="334" type="line"/>
      <point x="761" y="640" type="line"/>
      <point x="1067" y="946" type="line"/>
      <point x="603" y="1410" type="line"/>
      <point x="603" y="799" type="line"/>
      <point x="348" y="1054" type="line"/>
      <point x="255" y="961" type="line"/>
      <point x="575" y="640" type="line"/>
      <point x="255" y="319" type="line"/>
      <point x="348" y="226" type="line"/>
      <point x="603" y="481" type="line"/>
    </contour>
    <contour>
      <point x="1322" y="431"/>
      <point x="1258" y="118"/>
      <point x="1147" y="-83"/>
      <point x="977" y="-207"/>
      <point x="784" y="-256"/>
      <point x="538" y="-256"/>
      <point x="345" y="-207"/>
      <point x="175" y="-83"/>
      <point x="64" y="118"/>
      <point x="0" y="431"/>
      <point x="0" y="849"/>
      <point x="64" y="1162"/>
      <point x="175" y="1363"/>
      <point x="345" y="1487"/>
      <point x="538" y="1536"/>
      <point x="784" y="1536"/>
      <point x="977" y="1487"/>
      <point x="1147" y="1363"/>
      <point x="1258" y="1162"/>
      <point x="1322" y="849"/>
    </contour>
  </outline>
</glyph>
