<?xml version="1.0" encoding="UTF-8"?>
<glyph name="uniF08E" format="2">
  <advance width="1792"/>
  <unicode hex="F08E"/>
  <outline>
    <contour>
      <point x="1408" y="608" type="qcurve" smooth="yes"/>
      <point x="1408" y="288" type="line" smooth="yes"/>
      <point x="1408" y="169"/>
      <point x="1239" y="0"/>
      <point x="1120" y="0" type="qcurve" smooth="yes"/>
      <point x="288" y="0" type="line" smooth="yes"/>
      <point x="169" y="0"/>
      <point x="0" y="169"/>
      <point x="0" y="288" type="qcurve" smooth="yes"/>
      <point x="0" y="1120" type="line" smooth="yes"/>
      <point x="0" y="1239"/>
      <point x="169" y="1408"/>
      <point x="288" y="1408" type="qcurve" smooth="yes"/>
      <point x="992" y="1408" type="line" smooth="yes"/>
      <point x="1006" y="1408"/>
      <point x="1024" y="1390"/>
      <point x="1024" y="1376" type="qcurve" smooth="yes"/>
      <point x="1024" y="1312" type="line" smooth="yes"/>
      <point x="1024" y="1298"/>
      <point x="1006" y="1280"/>
      <point x="992" y="1280" type="qcurve" smooth="yes"/>
      <point x="288" y="1280" type="line" smooth="yes"/>
      <point x="222" y="1280"/>
      <point x="128" y="1186"/>
      <point x="128" y="1120" type="qcurve" smooth="yes"/>
      <point x="128" y="288" type="line" smooth="yes"/>
      <point x="128" y="222"/>
      <point x="222" y="128"/>
      <point x="288" y="128" type="qcurve" smooth="yes"/>
      <point x="1120" y="128" type="line" smooth="yes"/>
      <point x="1186" y="128"/>
      <point x="1280" y="222"/>
      <point x="1280" y="288" type="qcurve" smooth="yes"/>
      <point x="1280" y="608" type="line" smooth="yes"/>
      <point x="1280" y="622"/>
      <point x="1298" y="640"/>
      <point x="1312" y="640" type="qcurve" smooth="yes"/>
      <point x="1376" y="640" type="line" smooth="yes"/>
      <point x="1390" y="640"/>
      <point x="1408" y="622"/>
    </contour>
    <contour>
      <point x="1792" y="1472" type="qcurve" smooth="yes"/>
      <point x="1792" y="960" type="line" smooth="yes"/>
      <point x="1792" y="934"/>
      <point x="1754" y="896"/>
      <point x="1702" y="896"/>
      <point x="1683" y="915" type="qcurve" smooth="yes"/>
      <point x="1507" y="1091" type="line"/>
      <point x="855" y="439" type="line" smooth="yes"/>
      <point x="845" y="429"/>
      <point x="819" y="429"/>
      <point x="809" y="439" type="qcurve" smooth="yes"/>
      <point x="695" y="553" type="line" smooth="yes"/>
      <point x="685" y="563"/>
      <point x="685" y="589"/>
      <point x="695" y="599" type="qcurve" smooth="yes"/>
      <point x="1347" y="1251" type="line"/>
      <point x="1171" y="1427" type="line" smooth="yes"/>
      <point x="1152" y="1446"/>
      <point x="1152" y="1498"/>
      <point x="1190" y="1536"/>
      <point x="1216" y="1536" type="qcurve" smooth="yes"/>
      <point x="1728" y="1536" type="line" smooth="yes"/>
      <point x="1754" y="1536"/>
      <point x="1792" y="1498"/>
    </contour>
  </outline>
</glyph>
