<?xml version="1.0" encoding="UTF-8" standalone="no"?>
<svg
   xmlns:dc="http://purl.org/dc/elements/1.1/"
   xmlns:cc="http://creativecommons.org/ns#"
   xmlns:rdf="http://www.w3.org/1999/02/22-rdf-syntax-ns#"
   xmlns:svg="http://www.w3.org/2000/svg"
   xmlns="http://www.w3.org/2000/svg"
   xmlns:sodipodi="http://sodipodi.sourceforge.net/DTD/sodipodi-0.dtd"
   xmlns:inkscape="http://www.inkscape.org/namespaces/inkscape"
   viewBox="0 0 42.464734 42.464734"
   version="1.1"
   id="svg8589"
   sodipodi:docname="pin-on.svg"
   inkscape:version="1.0.2 (1.0.2+r75+1)"
   width="42.464733"
   height="42.464733">
  <metadata
     id="metadata8593">
    <rdf:RDF>
      <cc:Work
         rdf:about="">
        <dc:format>image/svg+xml</dc:format>
        <dc:type
           rdf:resource="http://purl.org/dc/dcmitype/StillImage" />
        <dc:title>carrot-on</dc:title>
      </cc:Work>
    </rdf:RDF>
  </metadata>
  <sodipodi:namedview
     pagecolor="#ffffff"
     bordercolor="#666666"
     borderopacity="1"
     objecttolerance="10"
     gridtolerance="10"
     guidetolerance="10"
     inkscape:pageopacity="0"
     inkscape:pageshadow="2"
     inkscape:window-width="1920"
     inkscape:window-height="1016"
     id="namedview8591"
     showgrid="false"
     inkscape:zoom="13.877522"
     inkscape:cx="1.3406072"
     inkscape:cy="17.382878"
     inkscape:window-x="1920"
     inkscape:window-y="27"
     inkscape:window-maximized="1"
     inkscape:current-layer="svg8589"
     fit-margin-top="0"
     fit-margin-left="0"
     fit-margin-right="0"
     fit-margin-bottom="0"
     inkscape:document-rotation="0" />
  <defs
     id="defs8561">
    <style
       id="style8556">.cls-1,.cls-5,.cls-6{fill:none;}.cls-2{fill:#8db63c;}.cls-3{clip-path:url(#clip-path);}.cls-4{fill:#fff;}.cls-5{stroke:#1d1d1b;stroke-linecap:round;stroke-linejoin:round;stroke-width:1.17px;}.cls-6{stroke:#fff;stroke-width:3px;}</style>
    <clipPath
       id="clip-path">
      <path
         class="cls-1"
         d="M 21.23,41 A 19.73,19.73 0 1 0 1.5,21.23 19.73,19.73 0 0 0 21.23,41"
         id="path8558"
         inkscape:connector-curvature="0"
         style="fill:none" />
    </clipPath>
  </defs>
  <title
     id="title8563">carrot-on</title>
  <g
     id="Layer_2"
     data-name="Layer 2"
     clip-path="none"
     transform="translate(8.8668584e-4,-1.2097794e-4)">
    <g
       id="Layer_1-2"
       data-name="Layer 1">
      <path
         class="cls-2"
         d="M 21.23,41 A 19.73,19.73 0 1 0 1.5,21.23 19.73,19.73 0 0 0 21.23,41"
         id="path8565"
         inkscape:connector-curvature="0"
         style="fill:#096077;fill-opacity:1" />
      <g
         class="cls-3"
         clip-path="url(#clip-path)"
         id="g8583" />
      <circle
         class="cls-6"
         cx="21.23"
         cy="21.23"
         r="19.73"
         transform="rotate(-10.9,21.243774,21.223489)"
         id="circle8585"
         style="fill:none;stroke:#ffffff;stroke-width:3px" />
    </g>
  </g>
  <circle
     style="opacity:1;fill:#ffffff;fill-opacity:1;stroke:none;stroke-width:1.3719008;stroke-miterlimit:4;stroke-dasharray:none;stroke-opacity:1"
     id="path988"
     cx="21.293427"
     cy="9.4256916"
     r="2.9904475" />
  <rect
     style="opacity:1;fill:#ffffff;fill-opacity:1;stroke:none;stroke-width:2.05056548;stroke-miterlimit:4;stroke-dasharray:none;stroke-opacity:1"
     id="rect990"
     width="0.86470771"
     height="25.148582"
     x="20.861073"
     y="11.983787" />
</svg>
