<?xml version="1.0" encoding="UTF-8" standalone="no"?>
<svg
   viewBox="0 0 65.009993 74.518267"
   version="1.1"
   id="svg81"
   sodipodi:docname="14-flooding.svg"
   width="65.009995"
   height="74.518265"
   inkscape:version="1.1.2 (1:1.1+202202050950+0a00cf5339)"
   xmlns:inkscape="http://www.inkscape.org/namespaces/inkscape"
   xmlns:sodipodi="http://sodipodi.sourceforge.net/DTD/sodipodi-0.dtd"
   xmlns="http://www.w3.org/2000/svg"
   xmlns:svg="http://www.w3.org/2000/svg">
  <sodipodi:namedview
     id="namedview83"
     pagecolor="#ffffff"
     bordercolor="#666666"
     borderopacity="1.0"
     inkscape:pageshadow="2"
     inkscape:pageopacity="0.0"
     inkscape:pagecheckerboard="0"
     showgrid="false"
     fit-margin-top="0"
     fit-margin-left="0"
     fit-margin-right="0"
     fit-margin-bottom="0"
     inkscape:zoom="1.2179496"
     inkscape:cx="-153.1262"
     inkscape:cy="238.51561"
     inkscape:window-width="1920"
     inkscape:window-height="1016"
     inkscape:window-x="798"
     inkscape:window-y="1467"
     inkscape:window-maximized="1"
     inkscape:current-layer="Calque_2-2" />
  <defs
     id="defs7">
    <style
       id="style2">.cls-1,.cls-3,.cls-4,.cls-5,.cls-7,.cls-8{fill:none;}.cls-10,.cls-11,.cls-2{fill:#289084;}.cls-10,.cls-11,.cls-3,.cls-4,.cls-5{stroke:#fff;}.cls-3,.cls-4,.cls-5{stroke-linecap:round;stroke-linejoin:round;}.cls-10,.cls-3,.cls-4,.cls-5{stroke-width:1.5px;}.cls-4{stroke-dasharray:0 4.92;}.cls-5{stroke-dasharray:0 5.05;}.cls-6{clip-path:url(#clip-path);}.cls-7{stroke:#1d1d1b;}.cls-10,.cls-11,.cls-7,.cls-8{stroke-miterlimit:10;}.cls-7,.cls-8{stroke-width:0.5px;}.cls-8{stroke:#9fd1b6;}.cls-9{fill:#9fd1b6;}</style>
    <clipPath
       id="clip-path"
       transform="translate(621.76)">
      <path
         class="cls-1"
         d="m 63.87,29.56 a 1,1 0 0 0 -1,-1.3 l -6.17,0.15 c -7.26,0.18 -8.72,-0.81 -10.41,-2 -0.6,-0.41 -1.27,-0.87 -2.08,-1.34 -1,-0.6 -2.34,-1.42 -3.85,-2.36 -4.24,-2.63 -9.5,-5.89 -14,-8.16 C 21.59,12.21 15,10.91 9.56,10.21 v 0 C 3.66,14 0,19.2 0,25 a 14.07,14.07 0 0 0 1.51,6.28 1,1 0 0 0 0.79,0.54 c 6.2,0.65 10.74,1.79 12.49,2.66 3.72,1.86 8.76,5 12.44,7.26 1.56,1 2.94,1.83 4,2.47 0.33,0.2 0.86,0.54 1.18,0.76 l 0.93,0.62 a 1,1 0 0 0 0.59,0.16 C 48.62,45.26 60.73,38.5 63.87,29.56 Z"
         id="path4" />
    </clipPath>
  </defs>
  <g
     id="Calque_2"
     data-name="Calque 2"
     transform="translate(-621.76003,4.5969843e-4)">
    <g
       id="Calque_2-2"
       data-name="Calque 2">
      <ellipse
         class="cls-2"
         cx="654.09003"
         cy="24.969999"
         rx="32.330002"
         ry="20.780001"
         id="ellipse9" />
      <line
         class="cls-3"
         x1="686.02002"
         y1="28.219999"
         x2="686.02002"
         y2="28.219999"
         id="line11" />
      <path
         class="cls-4"
         d="m 59.35,28.35 -2.61,0.06 c -7.26,0.18 -8.72,-0.81 -10.41,-2 -0.6,-0.41 -1.27,-0.87 -2.08,-1.34 -1,-0.6 -2.34,-1.42 -3.85,-2.36 -4.24,-2.63 -9.5,-5.89 -14,-8.16 -4.08,-2 -9.48,-3.28 -14.36,-4"
         transform="translate(621.76)"
         id="path13" />
      <line
         class="cls-3"
         x1="631.32001"
         y1="10.21"
         x2="631.32001"
         y2="10.21"
         id="line15" />
      <line
         class="cls-3"
         x1="655.39001"
         y1="45.73"
         x2="655.39001"
         y2="45.73"
         id="line17" />
      <path
         class="cls-5"
         d="M 29.37,43 27.23,41.67 C 23.55,39.39 18.51,36.27 14.79,34.41 13.23,33.67 9.46,32.68 4.27,32"
         transform="translate(621.76)"
         id="path19" />
      <line
         class="cls-3"
         x1="623.52002"
         y1="31.73"
         x2="623.52002"
         y2="31.73"
         id="line21" />
      <path
         class="cls-9"
         d="M 39.18,33.72 C 35.5,31.55 27.68,26.43 21.89,23.54 c -4.94,-2.47 -14.14,-3.65 -20,-4 a 0.94,0.94 0 0 0 -1,0.62 L 0.8,20.4 a 1,1 0 0 0 0.84,1.3 c 5.77,0.51 13.32,1.67 17.62,3.83 5.79,2.89 13.61,8 17.29,10.18 3.27,1.93 5.3,4.89 17.19,4.7 a 1,1 0 0 0 0.51,-0.14 v 0 a 1,1 0 0 0 -0.5,-1.82 C 44.15,38.16 42.19,35.5 39.18,33.72 Z"
         transform="translate(621.76)"
         id="path71" />
      <path
         class="cls-10"
         d="M 39.27,1.16 36.2,5.41 A 1,1 0 0 0 36,6 v 6.15 a 1,1 0 0 0 0.76,1 l 7.77,1.78 a 1,1 0 0 0 1,-0.32 l 3,-3.53 a 1,1 0 0 0 0.23,-0.63 V 3.5 A 1,1 0 0 0 48,2.5 L 40.28,0.77 a 1,1 0 0 0 -1.01,0.39 z"
         transform="translate(621.76)"
         id="path73" />
      <path
         class="cls-11"
         d="m 34.58,51 v 22 a 1,1 0 0 0 1,1 h 3 V 73.23 L 41,74 a 1.26,1.26 0 0 0 0.28,0 h 7.24 a 1,1 0 0 0 1,-0.94 6.52,6.52 0 0 0 -0.27,-2.15 C 48.73,69.7 44.43,69.18 43.25,68.84 42.07,68.5 43.6,57.3 43.76,50.99 a 1,1 0 0 0 -1,-1 h -7.2 A 1,1 0 0 0 34.58,51 Z"
         transform="translate(621.76)"
         id="path75" />
      <path
         class="cls-11"
         d="m 22,50 a 1,1 0 0 0 -1,1 c 0.16,6.31 1.65,17.53 0.51,17.85 -1.14,0.32 -5.51,0.86 -6,2.07 a 6.52,6.52 0 0 0 -0.27,2.15 1,1 0 0 0 1,0.94 h 7.24 a 1.26,1.26 0 0 0 0.28,0 l 2.45,-0.73 V 74 h 3 a 1,1 0 0 0 1,-1 V 51 a 1,1 0 0 0 -1,-1 z"
         transform="translate(621.76)"
         id="path77" />
    </g>
  </g>
</svg>
