<?xml version="1.0" encoding="UTF-8" standalone="no"?>
<!-- Created with Inkscape (http://www.inkscape.org/) -->

<svg xmlns:dc="http://purl.org/dc/elements/1.1/"
    xmlns:cc="http://creativecommons.org/ns#"
    xmlns:rdf="http://www.w3.org/1999/02/22-rdf-syntax-ns#"
    xmlns:svg="http://www.w3.org/2000/svg"
    xmlns="http://www.w3.org/2000/svg"
    xmlns:sodipodi="http://sodipodi.sourceforge.net/DTD/sodipodi-0.dtd"
    xmlns:inkscape="http://www.inkscape.org/namespaces/inkscape" width="19.049999mm" height="14.699909mm" viewBox="0 0 19.049999 14.699909" version="1.1" id="svg3596" inkscape:version="0.92.0 r15299" sodipodi:docname="706.svg">
    <defs id="defs3590">
        <clipPath clipPathUnits="userSpaceOnUse" id="clipPath1088">
            <path d="m 510.233,595.671 h 36.482 v -42.634 h -36.482 z" id="path1086" inkscape:connector-curvature="0" />
        </clipPath>
        <clipPath clipPathUnits="userSpaceOnUse" id="clipPath1076">
            <path d="m 492.715,595.671 h 17.72 v -42.634 h -17.72 z" id="path1074" inkscape:connector-curvature="0" />
        </clipPath>
    </defs>
    <sodipodi:namedview id="base" pagecolor="#ffffff" bordercolor="#666666" borderopacity="1.0" inkscape:pageopacity="0.0" inkscape:pageshadow="2" inkscape:zoom="4" inkscape:cx="58.00098" inkscape:cy="36.005605" inkscape:document-units="mm" inkscape:current-layer="svg3596" showgrid="false" inkscape:window-width="1920" inkscape:window-height="1017" inkscape:window-x="-8" inkscape:window-y="-8" inkscape:window-maximized="1" fit-margin-top="0" fit-margin-left="0" fit-margin-right="0" fit-margin-bottom="0" showguides="false" />
    <metadata id="metadata3593">
        <rdf:RDF>
            <cc:Work rdf:about="">
                <dc:format>image/svg+xml</dc:format>
                <dc:type rdf:resource="http://purl.org/dc/dcmitype/StillImage" />
                <dc:title></dc:title>
            </cc:Work>
        </rdf:RDF>
    </metadata>
    <path sodipodi:nodetypes="csccccscc" inkscape:connector-curvature="0" id="path5074" d="M 6.712327e-4,9.6459545 C 1.8525788,9.6555185 2.6317112,7.5911284 4.965108,5.6136399 6.2790192,4.5001369 8.762032,4.7128801 8.7088006,3.1107633 L 8.6519287,2.0415532 C 9.4810639,0.84045724 12.973713,1.4631449 12.98031,0.0014314 L 4.8407443,-7.5766215e-4 C 4.8346972,1.3323872 3.455919,1.396264 2.2952435,2.2850542 1.487047,2.9039326 1.0168667,3.4907164 6.633227e-4,3.4850898 Z" style="fill:#808080;stroke:none;stroke-width:0.26458332px;stroke-linecap:butt;stroke-linejoin:miter;stroke-opacity:1" />
    <path sodipodi:nodetypes="cccsscccccc" inkscape:connector-curvature="0" id="path4614" d="m 4.8673931,14.703921 c 0.037821,-1.266203 4.9898191,-2.991153 5.7847829,-4.9184373 l 0.02256,-2.0641696 c 1.071909,-1.6588798 5.099669,-5.734368 5.862858,-3.5092463 0,0 0.177894,0.4565972 0.237867,0.693516 0.48414,1.9125704 1.133139,-1.4202702 2.276599,-1.4504663 l 8e-6,6.2187418 C 18.081933,9.6475756 16.639999,9.0969938 16.225283,11.153533 l 0.04135,1.137183 c -0.507015,1.277636 -3.196678,1.034102 -3.256578,2.413327 z" style="fill:#808080;stroke:none;stroke-width:0.26458332px;stroke-linecap:butt;stroke-linejoin:miter;stroke-opacity:1" />
    <rect style="opacity:1;fill:none;fill-opacity:1;stroke:none;stroke-width:0;stroke-miterlimit:4;stroke-dasharray:none" id="rect5266" width="19.048296" height="14.69946" x="0.0015156573" y="0.00066162547" />
    <path style="fill:none;stroke:#000000;stroke-width:0.26458332px;stroke-linecap:butt;stroke-linejoin:miter;stroke-opacity:1" d="M 0.00273038,3.4602851 C 1.0189338,3.4659117 1.4891141,2.8791279 2.2973106,2.2602495 3.4579861,1.3714593 4.8346972,1.3323872 4.8407443,-7.5766215e-4" id="path4560" inkscape:connector-curvature="0" sodipodi:nodetypes="csc" />
    <path style="fill:none;stroke:#000000;stroke-width:0.26458332px;stroke-linecap:butt;stroke-linejoin:miter;stroke-opacity:1" d="M 0.00273829,9.6728262 C 1.8546459,9.6823902 2.6317112,7.5911284 4.965108,5.6136399 6.2790192,4.5001369 8.762032,4.7128801 8.7088006,3.1107633 L 8.6519287,2.0415532 C 9.4810639,0.84045724 12.973713,1.4631449 12.98031,0.0014314" id="path4562" inkscape:connector-curvature="0" sodipodi:nodetypes="csccc" />
    <path style="fill:none;stroke:#000000;stroke-width:0.26458332px;stroke-linecap:butt;stroke-linejoin:miter;stroke-opacity:1" d="M 4.8407435,14.698705 C 4.8358974,13.467556 9.9584977,11.69003 10.753462,9.7627461 l -0.07873,-2.041432 c 1.071909,-1.6588798 5.099669,-5.734368 5.862858,-3.5092463 0,0 0.177894,0.4565972 0.237867,0.693516 0.48414,1.9125704 1.141913,-1.4495028 2.276603,-1.4504663" id="path4564" inkscape:connector-curvature="0" sodipodi:nodetypes="cccssc" />
    <path style="fill:none;stroke:#000000;stroke-width:0.26458332px;stroke-linecap:butt;stroke-linejoin:miter;stroke-opacity:1" d="m 12.979276,14.702961 c 0.0016,-1.392129 2.780346,-1.134609 3.287361,-2.412245 l -0.04135,-1.137183 c 0.414716,-2.0565392 1.856646,-1.4781869 2.826781,-1.4796737" id="path4567" inkscape:connector-curvature="0" sodipodi:nodetypes="cccc" />
    <path style="fill:none;stroke:#000000;stroke-width:0.26458332px;stroke-linecap:butt;stroke-linejoin:miter;stroke-opacity:1" d="M 3.466987,0.49870986 V 2.9396883e-4" id="path5175" inkscape:connector-curvature="0" sodipodi:nodetypes="cc" />
    <circle r="0.22900039" cy="0.42231429" cx="14.83005" id="circle4530" style="opacity:1;fill:#000000;fill-opacity:1;stroke:none;stroke-width:0.21166667;stroke-miterlimit:4;stroke-dasharray:none" />
    <circle r="0.22900039" cy="0.39342588" cx="0.72950858" id="circle4572" style="opacity:1;fill:#000000;fill-opacity:1;stroke:none;stroke-width:0.21166667;stroke-miterlimit:4;stroke-dasharray:none" />
    <circle style="opacity:1;fill:#000000;fill-opacity:1;stroke:none;stroke-width:0.21166667;stroke-miterlimit:4;stroke-dasharray:none" id="circle4594" cx="12.123111" cy="2.135345" r="0.22900039" />
    <circle style="opacity:1;fill:#000000;fill-opacity:1;stroke:none;stroke-width:0.21166667;stroke-miterlimit:4;stroke-dasharray:none" id="circle4604" cx="17.220804" cy="2.0885727" r="0.22900039" />
    <circle style="opacity:1;fill:#000000;fill-opacity:1;stroke:none;stroke-width:0.21166667;stroke-miterlimit:4;stroke-dasharray:none" id="circle4646" cx="14.976213" cy="3.5360415" r="0.22900039" />
    <circle style="opacity:1;fill:#000000;fill-opacity:1;stroke:none;stroke-width:0.21166667;stroke-miterlimit:4;stroke-dasharray:none" id="circle4654" cx="9.7998552" cy="4.3545547" r="0.22900039" />
    <circle r="0.22900039" cy="5.3952355" cx="11.433222" id="circle4662" style="opacity:1;fill:#000000;fill-opacity:1;stroke:none;stroke-width:0.21166667;stroke-miterlimit:4;stroke-dasharray:none" />
    <circle r="0.22900039" cy="5.3367705" cx="6.631042" id="circle4670" style="opacity:1;fill:#000000;fill-opacity:1;stroke:none;stroke-width:0.21166667;stroke-miterlimit:4;stroke-dasharray:none" />
    <circle r="0.22900039" cy="4.6387134" cx="17.220804" id="circle4672" style="opacity:1;fill:#000000;fill-opacity:1;stroke:none;stroke-width:0.21166667;stroke-miterlimit:4;stroke-dasharray:none" />
    <circle r="0.22900039" cy="6.5423532" cx="5.4191127" id="circle4762" style="opacity:1;fill:#000000;fill-opacity:1;stroke:none;stroke-width:0.21166667;stroke-miterlimit:4;stroke-dasharray:none" />
    <circle style="opacity:1;fill:#000000;fill-opacity:1;stroke:none;stroke-width:0.21166667;stroke-miterlimit:4;stroke-dasharray:none" id="circle4764" cx="9.9050922" cy="7.1971636" r="0.22900039" />
    <circle style="opacity:1;fill:#000000;fill-opacity:1;stroke:none;stroke-width:0.21166667;stroke-miterlimit:4;stroke-dasharray:none" id="circle4778" cx="2.9869606" cy="7.992291" r="0.22900039" />
    <circle r="0.22900039" cy="8.3478251" cx="7.4242635" id="circle4780" style="opacity:1;fill:#000000;fill-opacity:1;stroke:none;stroke-width:0.21166667;stroke-miterlimit:4;stroke-dasharray:none" />
    <circle style="opacity:1;fill:#000000;fill-opacity:1;stroke:none;stroke-width:0.21166667;stroke-miterlimit:4;stroke-dasharray:none" id="circle4796" cx="5.9813514" cy="9.4437714" r="0.22900039" />
    <circle r="0.22900039" cy="9.5099182" cx="10.162339" id="circle4798" style="opacity:1;fill:#000000;fill-opacity:1;stroke:none;stroke-width:0.21166667;stroke-miterlimit:4;stroke-dasharray:none" />
    <circle r="0.22900039" cy="11.406095" cx="2.8215961" id="circle4812" style="opacity:1;fill:#000000;fill-opacity:1;stroke:none;stroke-width:0.21166667;stroke-miterlimit:4;stroke-dasharray:none" />
    <circle style="opacity:1;fill:#000000;fill-opacity:1;stroke:none;stroke-width:0.21166667;stroke-miterlimit:4;stroke-dasharray:none" id="circle4814" cx="7.7301879" cy="11.10017" r="0.22900039" />
    <circle style="opacity:1;fill:#000000;fill-opacity:1;stroke:none;stroke-width:0.21166667;stroke-miterlimit:4;stroke-dasharray:none" id="circle4816" cx="17.220804" cy="11.10017" r="0.22900039" />
    <circle r="0.22900039" cy="12.602554" cx="5.0222373" id="circle4855" style="opacity:1;fill:#000000;fill-opacity:1;stroke:none;stroke-width:0.21166667;stroke-miterlimit:4;stroke-dasharray:none" />
    <circle style="opacity:1;fill:#000000;fill-opacity:1;stroke:none;stroke-width:0.21166667;stroke-miterlimit:4;stroke-dasharray:none" id="circle4859" cx="1.0602378" cy="12.660432" r="0.22900039" />
    <circle style="opacity:1;fill:#000000;fill-opacity:1;stroke:none;stroke-width:0.21166667;stroke-miterlimit:4;stroke-dasharray:none" id="circle4871" cx="2.9869606" cy="13.953274" r="0.22900039" />
    <circle r="0.22900039" cy="13.953274" cx="17.220804" id="circle4875" style="opacity:1;fill:#000000;fill-opacity:1;stroke:none;stroke-width:0.21166667;stroke-miterlimit:4;stroke-dasharray:none" />
    <circle style="opacity:1;fill:#000000;fill-opacity:1;stroke:none;stroke-width:0.21166667;stroke-miterlimit:4;stroke-dasharray:none" id="circle4871-6" cx="4.9587784" cy="10.873631" r="0.22900039" />
    <circle style="opacity:1;fill:#000000;fill-opacity:1;stroke:none;stroke-width:0.21166667;stroke-miterlimit:4;stroke-dasharray:none" id="circle4871-8" cx="7.8815932" cy="6.0232692" r="0.22900039" />
    <circle style="opacity:1;fill:#000000;fill-opacity:1;stroke:none;stroke-width:0.21166667;stroke-miterlimit:4;stroke-dasharray:none" id="circle4871-7" cx="11.179032" cy="1.6032994" r="0.22900039" />
    <circle style="opacity:1;fill:#000000;fill-opacity:1;stroke:none;stroke-width:0.21166667;stroke-miterlimit:4;stroke-dasharray:none" id="circle4871-2" cx="17.6924" cy="3.3277082" r="0.22900039" />
    <circle style="opacity:1;fill:#000000;fill-opacity:1;stroke:none;stroke-width:0.21166667;stroke-miterlimit:4;stroke-dasharray:none" id="circle4871-67" cx="18.659742" cy="10.203014" r="0.22900039" />
    <circle style="opacity:1;fill:#000000;fill-opacity:1;stroke:none;stroke-width:0.21166667;stroke-miterlimit:4;stroke-dasharray:none" id="circle4871-1" cx="1.9427024" cy="1.6531938" r="0.22900039" />
    <circle style="opacity:1;fill:#000000;fill-opacity:1;stroke:none;stroke-width:0.21166667;stroke-miterlimit:4;stroke-dasharray:none" id="circle4871-0" cx="0.37652358" cy="1.6923444" r="0.22900039" />
    <circle style="opacity:1;fill:#000000;fill-opacity:1;stroke:none;stroke-width:0.21166667;stroke-miterlimit:4;stroke-dasharray:none" id="circle4871-5" cx="9.0041246" cy="9.7182703" r="0.22900039" />
    <circle style="opacity:1;fill:#000000;fill-opacity:1;stroke:none;stroke-width:0.21166667;stroke-miterlimit:4;stroke-dasharray:none" id="circle4871-63" cx="1.000612" cy="11.045115" r="0.22900039" />
    <circle style="opacity:1;fill:#000000;fill-opacity:1;stroke:none;stroke-width:0.21166667;stroke-miterlimit:4;stroke-dasharray:none" id="circle4654-4" cx="9.5420046" cy="2.1177933" r="0.22900039" />
    <circle style="opacity:1;fill:#000000;fill-opacity:1;stroke:none;stroke-width:0.21166667;stroke-miterlimit:4;stroke-dasharray:none" id="circle4654-3" cx="9.7290926" cy="5.3684592" r="0.22900039" />
    <circle style="opacity:1;fill:#000000;fill-opacity:1;stroke:none;stroke-width:0.21166667;stroke-miterlimit:4;stroke-dasharray:none" id="circle4654-77" cx="2.1257374" cy="9.3977146" r="0.22900039" />
    <circle style="opacity:1;fill:#000000;fill-opacity:1;stroke:none;stroke-width:0.21166667;stroke-miterlimit:4;stroke-dasharray:none" id="circle4654-2" cx="2.6912594" cy="0.31889886" r="0.22900039" />
    <circle style="opacity:1;fill:#000000;fill-opacity:1;stroke:none;stroke-width:0.21166667;stroke-miterlimit:4;stroke-dasharray:none" id="circle4654-03" cx="18.132711" cy="0.23423935" r="0.22900039" />
    <circle style="opacity:1;fill:#000000;fill-opacity:1;stroke:none;stroke-width:0.21166667;stroke-miterlimit:4;stroke-dasharray:none" id="circle4654-92" cx="14.428544" cy="14.447326" r="0.22900039" />
    <circle style="opacity:1;fill:#000000;fill-opacity:1;stroke:none;stroke-width:0.21166667;stroke-miterlimit:4;stroke-dasharray:none" id="circle4654-61" cx="1.1249611" cy="13.773464" r="0.22900039" />
    <circle style="opacity:1;fill:#000000;fill-opacity:1;stroke:none;stroke-width:0.21166667;stroke-miterlimit:4;stroke-dasharray:none" id="circle4654-1" cx="16.834597" cy="12.582839" r="0.22900039" />
    <circle style="opacity:1;fill:#000000;fill-opacity:1;stroke:none;stroke-width:0.21166667;stroke-miterlimit:4;stroke-dasharray:none" id="circle4654-5" cx="15.247098" cy="2.0325792" r="0.22900039" />
    <circle style="opacity:1;fill:#000000;fill-opacity:1;stroke:none;stroke-width:0.21166667;stroke-miterlimit:4;stroke-dasharray:none" id="circle4654-15" cx="12.956372" cy="0.94848895" r="0.22900039" />
    <circle style="opacity:1;fill:#000000;fill-opacity:1;stroke:none;stroke-width:0.21166667;stroke-miterlimit:4;stroke-dasharray:none" id="circle4654-49" cx="16.417517" cy="1.088805" r="0.22900039" />
    <circle style="opacity:1;fill:#000000;fill-opacity:1;stroke:none;stroke-width:0.21166667;stroke-miterlimit:4;stroke-dasharray:none" id="circle4654-22" cx="18.573534" cy="1.9446471" r="0.22900039" />
    <circle style="opacity:1;fill:#000000;fill-opacity:1;stroke:none;stroke-width:0.21166667;stroke-miterlimit:4;stroke-dasharray:none" id="circle4654-05" cx="18.803183" cy="13.390288" r="0.22900039" />
    <circle style="opacity:1;fill:#000000;fill-opacity:1;stroke:none;stroke-width:0.21166667;stroke-miterlimit:4;stroke-dasharray:none" id="circle4654-57" cx="13.647075" cy="2.9607697" r="0.22900039" />
    <circle r="0.22900039" cy="4.4100323" cx="12.698644" id="circle4662-1" style="opacity:1;fill:#000000;fill-opacity:1;stroke:none;stroke-width:0.21166667;stroke-miterlimit:4;stroke-dasharray:none" />
    <path style="fill:none;stroke:#000000;stroke-width:0.26458332px;stroke-linecap:butt;stroke-linejoin:miter;stroke-opacity:1" d="M -4.8894704e-4,8.9295413 C 1.5566943,8.950212 3.0156921,4.0450851 6.3340081,3.7308924" id="path8020" inkscape:connector-curvature="0" sodipodi:nodetypes="cc" />
    <path sodipodi:nodetypes="cc" inkscape:connector-curvature="0" id="path8040" d="M 0.57932062,6.6330407 C 5.4943946,1.4490208 6.5254339,4.1884724 8.1860915,1.4902023" style="fill:none;stroke:#000000;stroke-width:0.26458332px;stroke-linecap:butt;stroke-linejoin:miter;stroke-opacity:1" />
    <path style="fill:none;stroke:#000000;stroke-width:0.26458332px;stroke-linecap:butt;stroke-linejoin:miter;stroke-opacity:1" d="M 6.7551431,4.2157946 C 7.4193575,4.0338936 8.1166449,3.5377998 8.2516926,2.8515368" id="path8042" inkscape:connector-curvature="0" sodipodi:nodetypes="cc" />
    <path style="fill:none;stroke:#000000;stroke-width:0.26458332px;stroke-linecap:butt;stroke-linejoin:miter;stroke-opacity:1" d="M 0,5.7557522 C 0.8116645,5.763676 1.8217665,4.3556655 2.7450521,3.7879137" id="path8044" inkscape:connector-curvature="0" sodipodi:nodetypes="cc" />
    <path style="fill:none;stroke:#000000;stroke-width:0.26458332px;stroke-linecap:butt;stroke-linejoin:miter;stroke-opacity:1" d="M 3.1103492,2.9484021 C 10.067709,0.54743084 6.374886,0.16752172 9.1412431,0.22228225" id="path8046" inkscape:connector-curvature="0" sodipodi:nodetypes="cc" />
    <path style="fill:none;stroke:#000000;stroke-width:0.26458332px;stroke-linecap:butt;stroke-linejoin:miter;stroke-opacity:1" d="M 9.2491961,0.72672418 C 9.9121598,0.80339481 11.015407,0.39637403 11.014845,0.0017556" id="path8048" inkscape:connector-curvature="0" sodipodi:nodetypes="cc" />
    <path style="fill:none;stroke:#000000;stroke-width:0.26458332px;stroke-linecap:butt;stroke-linejoin:miter;stroke-opacity:1" d="M 4.9035186,1.3127949 C 5.6089987,0.87625466 7.0296807,0.67535897 7.019959,0.00317422" id="path8050" inkscape:connector-curvature="0" sodipodi:nodetypes="cc" />
    <path style="fill:none;stroke:#000000;stroke-width:0.26458332px;stroke-linecap:butt;stroke-linejoin:miter;stroke-opacity:1" d="M 0.54957295,4.1644783 C 1.1887925,3.6772683 3.1493259,2.1259914 4.7473749,1.8609492" id="path8052" inkscape:connector-curvature="0" sodipodi:nodetypes="cc" />
    <rect style="opacity:1;fill:none;fill-opacity:1;stroke:none;stroke-width:0;stroke-miterlimit:4;stroke-dasharray:none" id="rect5266-7" width="19.048296" height="14.69946" x="19.052908" y="-0.029309656" />
    <path style="fill:none;stroke:#000000;stroke-width:0.26458332px;stroke-linecap:butt;stroke-linejoin:miter;stroke-opacity:1" d="m 7.019959,14.713174 c 0.1077571,-1.177623 2.3202617,-0.63637 3.059443,-1.778914" id="path8565" inkscape:connector-curvature="0" sodipodi:nodetypes="cc" />
    <path style="fill:none;stroke:#000000;stroke-width:0.26458332px;stroke-linecap:butt;stroke-linejoin:miter;stroke-opacity:1" d="m 11.014845,14.711755 c -0.0058,-1.260951 4.105861,-1.903832 4.687046,-3.128599" id="path8567" inkscape:connector-curvature="0" sodipodi:nodetypes="cc" />
    <path style="fill:none;stroke:#000000;stroke-width:0.26458332px;stroke-linecap:butt;stroke-linejoin:miter;stroke-opacity:1" d="M 8.4501301,12.831289 C 9.2438801,12.475761 10.03763,11.984284 10.83138,10.979206" id="path8569" inkscape:connector-curvature="0" sodipodi:nodetypes="cc" />
    <path style="fill:none;stroke:#000000;stroke-width:0.26458332px;stroke-linecap:butt;stroke-linejoin:miter;stroke-opacity:1" d="m 10.800234,8.8005925 c 2.035968,-0.8098177 3.81469,-5.7589723 5.570025,-3.4584409" id="path8571" inkscape:connector-curvature="0" sodipodi:nodetypes="cc" />
    <path style="fill:none;stroke:#000000;stroke-width:0.26458332px;stroke-linecap:butt;stroke-linejoin:miter;stroke-opacity:1" d="m 10.80437,13.717694 c 1.738366,-2.814126 4.505719,-1.629231 4.934464,-4.2328816" id="path8573" inkscape:connector-curvature="0" sodipodi:nodetypes="cc" />
    <path style="fill:none;stroke:#000000;stroke-width:0.26458332px;stroke-linecap:butt;stroke-linejoin:miter;stroke-opacity:1" d="M 12.27437,10.931224 C 15.556217,9.5007749 15.777811,6.5420634 17.118613,8.7832299" id="path8575" inkscape:connector-curvature="0" sodipodi:nodetypes="cc" />
    <path style="fill:none;stroke:#000000;stroke-width:0.26458332px;stroke-linecap:butt;stroke-linejoin:miter;stroke-opacity:1" d="m 19.050906,8.8995699 c -0.361691,-5.123e-4 -0.785395,0.02378 -1.178092,0.03567" id="path8577" inkscape:connector-curvature="0" sodipodi:nodetypes="cc" />
    <path style="fill:none;stroke:#000000;stroke-width:0.26458332px;stroke-linecap:butt;stroke-linejoin:miter;stroke-opacity:1" d="m 17.156576,6.3159247 c 0.99403,0.9939104 1.119897,-0.5877326 1.894819,-0.5901438" id="path8579" inkscape:connector-curvature="0" sodipodi:nodetypes="cc" />
    <path style="fill:none;stroke:#000000;stroke-width:0.26458332px;stroke-linecap:butt;stroke-linejoin:miter;stroke-opacity:1" d="M 18.825797,4.643893 C 18.318008,4.9230368 17.896389,6.2718668 17.49279,5.7839646" id="path8581" inkscape:connector-curvature="0" sodipodi:nodetypes="cc" />
    <path style="fill:none;stroke:#000000;stroke-width:0.26458332px;stroke-linecap:butt;stroke-linejoin:miter;stroke-opacity:1" d="m 11.145573,9.9539458 c 1.813498,-0.07717 3.147439,-3.1309029 4.150651,-2.9269533" id="path8583" inkscape:connector-curvature="0" sodipodi:nodetypes="cc" />
    <path style="fill:none;stroke:#000000;stroke-width:0.26458332px;stroke-linecap:butt;stroke-linejoin:miter;stroke-opacity:1" d="M 13.669166,7.0760459 C 14.595247,6.3988633 15.377172,4.950019 16.802901,6.9474225" id="path8585" inkscape:connector-curvature="0" sodipodi:nodetypes="cc" />
    <g id="g13963" style="stroke:#0066ff">
        <path inkscape:connector-curvature="0" id="path5099" d="M 15.59388,0.72660189 V -0.00409092" style="fill:none;stroke:#0066ff;stroke-width:0.26458332px;stroke-linecap:butt;stroke-linejoin:miter;stroke-opacity:1" />
        <path sodipodi:nodetypes="cc" style="fill:none;stroke:#0066ff;stroke-width:0.26458332px;stroke-linecap:butt;stroke-linejoin:miter;stroke-opacity:1" d="M 16.139583,8.7137113 16.33802,14.402253" id="path4584" inkscape:connector-curvature="0" />
        <path sodipodi:nodetypes="cc" style="fill:none;stroke:#0066ff;stroke-width:0.26458332px;stroke-linecap:butt;stroke-linejoin:miter;stroke-opacity:1" d="m 17.960512,11.97543 h 1.0933" id="path5087" inkscape:connector-curvature="0" />
        <path inkscape:connector-curvature="0" id="path5095" d="M 12.534635,2.9094144 13.080338,0.90850293" style="fill:none;stroke:#0066ff;stroke-width:0.26458332px;stroke-linecap:butt;stroke-linejoin:miter;stroke-opacity:1" />
        <path style="fill:none;stroke:#0066ff;stroke-width:0.26458332px;stroke-linecap:butt;stroke-linejoin:miter;stroke-opacity:1" d="M -0.00166259,2.5719782 H 1.1477762" id="path5125" inkscape:connector-curvature="0" sodipodi:nodetypes="cc" />
        <path inkscape:connector-curvature="0" id="path5127" d="m 18.570442,12.021003 -1.595768,1.595768" style="fill:none;stroke:#0066ff;stroke-width:0.26458332px;stroke-linecap:butt;stroke-linejoin:miter;stroke-opacity:1" />
        <path sodipodi:nodetypes="cc" inkscape:connector-curvature="0" id="path5129" d="m 17.682464,12.888701 -0.0029,1.809496" style="fill:none;stroke:#0066ff;stroke-width:0.26458332px;stroke-linecap:butt;stroke-linejoin:miter;stroke-opacity:1" />
        <path style="fill:none;stroke:#0066ff;stroke-width:0.26458332px;stroke-linecap:butt;stroke-linejoin:miter;stroke-opacity:1" d="M 2.5204093e-4,0.92655944 H 0.62766304" id="path5167" inkscape:connector-curvature="0" sodipodi:nodetypes="cc" />
        <path inkscape:connector-curvature="0" id="path5169" d="M 0.59634513,2.5274526 2.0112032,0.38762598" style="fill:none;stroke:#0066ff;stroke-width:0.26458332px;stroke-linecap:butt;stroke-linejoin:miter;stroke-opacity:1" />
        <path inkscape:connector-curvature="0" id="path5171" d="M 1.5084024,1.1710598 4.0340994,0.32916077" style="fill:none;stroke:#0066ff;stroke-width:0.26458332px;stroke-linecap:butt;stroke-linejoin:miter;stroke-opacity:1" />
        <path sodipodi:nodetypes="cc" inkscape:connector-curvature="0" id="path4569" d="M 1.8213608,14.464042 8.9627603,7.9199612" style="fill:none;stroke:#0066ff;stroke-width:0.26458332px;stroke-linecap:butt;stroke-linejoin:miter;stroke-opacity:1" />
        <path sodipodi:nodetypes="cc" inkscape:connector-curvature="0" id="path4571" d="M 2.778125,10.830378 10.619041,8.2470222" style="fill:none;stroke:#0066ff;stroke-width:0.26458332px;stroke-linecap:butt;stroke-linejoin:miter;stroke-opacity:1" />
        <path inkscape:connector-curvature="0" id="path4573" d="m 10.351823,3.5874092 0.562239,8.6651038" style="fill:none;stroke:#0066ff;stroke-width:0.26458332px;stroke-linecap:butt;stroke-linejoin:miter;stroke-opacity:1" />
        <path sodipodi:nodetypes="cc" style="fill:none;stroke:#0066ff;stroke-width:0.26458332px;stroke-linecap:butt;stroke-linejoin:miter;stroke-opacity:1" d="m 15.603223,1.1738017 2.289224,7.44069" id="path4595" inkscape:connector-curvature="0" />
        <path sodipodi:nodetypes="cc" inkscape:connector-curvature="0" id="path4597" d="M 3.8353177,7.8477866 4.2562671,10.887977" style="fill:none;stroke:#0066ff;stroke-width:0.26458332px;stroke-linecap:butt;stroke-linejoin:miter;stroke-opacity:1" />
        <path sodipodi:nodetypes="cc" inkscape:connector-curvature="0" id="path4601" d="M 10.430193,4.4392651 13.743681,2.1121185" style="fill:none;stroke:#0066ff;stroke-width:0.26458332px;stroke-linecap:butt;stroke-linejoin:miter;stroke-opacity:1" />
        <path sodipodi:nodetypes="cc" inkscape:connector-curvature="0" id="path4603" d="M 10.453579,5.7664251 7.7009545,7.8380997" style="fill:none;stroke:#0066ff;stroke-width:0.26458332px;stroke-linecap:butt;stroke-linejoin:miter;stroke-opacity:1" />
        <path inkscape:connector-curvature="0" id="path4627" d="M 8.8867116,5.4390199 8.5125345,0.45778425" style="fill:none;stroke:#0066ff;stroke-width:0.26458332px;stroke-linecap:butt;stroke-linejoin:miter;stroke-opacity:1" />
        <path inkscape:connector-curvature="0" id="path5076" d="M 0,11.97543 H 3.0343443" style="fill:none;stroke:#0066ff;stroke-width:0.26458332px;stroke-linecap:butt;stroke-linejoin:miter;stroke-opacity:1" />
        <path inkscape:connector-curvature="0" id="path5089" d="M 1.5048177,11.905248 2.905784,9.4787028" style="fill:none;stroke:#0066ff;stroke-width:0.26458332px;stroke-linecap:butt;stroke-linejoin:miter;stroke-opacity:1" />
        <path inkscape:connector-curvature="0" id="path5091" d="m 0.76067707,12.021003 -0.46302082,1.07487" style="fill:none;stroke:#0066ff;stroke-width:0.26458332px;stroke-linecap:butt;stroke-linejoin:miter;stroke-opacity:1" />
        <path inkscape:connector-curvature="0" id="path5093" d="M 1.5875,10.235065 6.8791666,7.3246487" style="fill:none;stroke:#0066ff;stroke-width:0.26458332px;stroke-linecap:butt;stroke-linejoin:miter;stroke-opacity:1" />
        <path inkscape:connector-curvature="0" id="path5097" d="M 12.948047,1.3384508 17.280599,0.46201856" style="fill:none;stroke:#0066ff;stroke-width:0.26458332px;stroke-linecap:butt;stroke-linejoin:miter;stroke-opacity:1" />
        <path sodipodi:nodetypes="cc" inkscape:connector-curvature="0" id="path5112" d="M 13.876667,1.603076 15.728751,1.545198" style="fill:none;stroke:#0066ff;stroke-width:0.26458332px;stroke-linecap:butt;stroke-linejoin:miter;stroke-opacity:1" />
        <path sodipodi:nodetypes="cc" inkscape:connector-curvature="0" id="path5114" d="m 16.040364,2.5719782 h 3.026172" style="fill:none;stroke:#0066ff;stroke-width:0.26458332px;stroke-linecap:butt;stroke-linejoin:miter;stroke-opacity:1" />
        <path style="fill:none;stroke:#0066ff;stroke-width:0.26458332px;stroke-linecap:butt;stroke-linejoin:miter;stroke-opacity:1" d="m 17.682464,0.00150726 -0.0029,1.19764704" id="path5140" inkscape:connector-curvature="0" sodipodi:nodetypes="cc" />
        <path sodipodi:nodetypes="cc" inkscape:connector-curvature="0" id="path5142" d="M 12.04681,3.3186917 9.3761717,3.0665108" style="fill:none;stroke:#0066ff;stroke-width:0.26458332px;stroke-linecap:butt;stroke-linejoin:miter;stroke-opacity:1" />
        <path sodipodi:nodetypes="cc" inkscape:connector-curvature="0" id="path5144" d="M 11.104232,3.9346748 16.106511,3.0251696" style="fill:none;stroke:#0066ff;stroke-width:0.26458332px;stroke-linecap:butt;stroke-linejoin:miter;stroke-opacity:1" />
        <path inkscape:connector-curvature="0" id="path5146" d="M 8.4005207,7.2585029 8.4170572,8.382982" style="fill:none;stroke:#0066ff;stroke-width:0.26458332px;stroke-linecap:butt;stroke-linejoin:miter;stroke-opacity:1" />
        <path sodipodi:nodetypes="cc" inkscape:connector-curvature="0" id="path5148" d="M 5.5658879,7.9647171 7.9642792,4.7558374" style="fill:none;stroke:#0066ff;stroke-width:0.26458332px;stroke-linecap:butt;stroke-linejoin:miter;stroke-opacity:1" />
        <path inkscape:connector-curvature="0" id="path5150" d="M 7.5736978,5.3733466 8.8470051,5.0591539" style="fill:none;stroke:#0066ff;stroke-width:0.26458332px;stroke-linecap:butt;stroke-linejoin:miter;stroke-opacity:1" />
        <path inkscape:connector-curvature="0" id="path5152" d="M 8.8399394,3.9656967 9.6818385,3.8487664" style="fill:none;stroke:#0066ff;stroke-width:0.26458332px;stroke-linecap:butt;stroke-linejoin:miter;stroke-opacity:1" />
        <path inkscape:connector-curvature="0" id="path5154" d="M 17.820196,2.4923735 18.615322,0.59810075" style="fill:none;stroke:#0066ff;stroke-width:0.26458332px;stroke-linecap:butt;stroke-linejoin:miter;stroke-opacity:1" />
        <path sodipodi:nodetypes="cc" inkscape:connector-curvature="0" id="path5156" d="m 18.425397,0.92655944 h 0.627411" style="fill:none;stroke:#0066ff;stroke-width:0.26458332px;stroke-linecap:butt;stroke-linejoin:miter;stroke-opacity:1" />
        <path style="fill:none;stroke:#0066ff;stroke-width:0.26458332px;stroke-linecap:butt;stroke-linejoin:miter;stroke-opacity:1" d="M 3.466987,14.699616 V 12.948563" id="path5186" inkscape:connector-curvature="0" sodipodi:nodetypes="cc" />
        <rect y="0.00066162547" x="0.0015156573" height="14.69946" width="19.048296" id="rect5266-5" style="opacity:1;fill:none;fill-opacity:1;stroke:#0066ff;stroke-width:0;stroke-miterlimit:4;stroke-dasharray:none" />
    </g>
</svg>
