codepoint,codename,name_fr,name_nl,name_en,cat_fr,cat_nl,cat_en
f3b4,112,112,112,112,,,
f3b5,d4,Support logistique,Logistieke steun,Logistical Support,,,Logistics/Support
f3b6,d2,Poste medica,Medische post,Medical aid,,,D2 (Medical Operations)
f3b7,d1,Opérations de secours,Hulpverleningsoperaties,Fire Brigade,,,D1 (Fire & Rescue)
f3b8,d3,Police,Politie,Police / Law Enforcement,,,D3 (Law Enforcement)
f3b9,administration,Administration,Administratie,Administration,,,
f3ba,alerte a la bombe, Alerte à la bombe,Bomdreiging,Bomb Threat,,,Incident Type
f3bb,barriere,Barrière,Barrière,Barrier,,,
f3bc,d5,D5,D5,D5,,,
f3bd,cyber attaque,Incident cybernétique,Cyberincident,Cyber Incident,,,Incident Type
f3be,creche,Crèche,Kinderdagverblijf,Nursery,,,
f3bf,covid19,Covid 19,Covid 19,Covid 19,,,
f3c0,concert,Concert,Concert,Concert,,,
f3c1,cc prov,Centre de crise provincial,Provinciaal Crisiscentrum,Provincial Crisis Centre,Coordination,Coördinatie,Coordination
f3c2,cc fed,Centre de crise fédéral,Federaal Crisiscentrum,Federal (National) Crisis Centre,Coordination,Coördinatie,Coordination
f3c3,cc gem com,Centre de crise Communal,Gemeentelijk Crisiscentrum ,Municipal/Local Crisis Centre,Coordination,Coördinatie,Coordination
f3c4,camera,Caméra,Camera,Camera,,,
f3c5,centre encadrement des proches,Centre d’encadrement des proches,Steunpunt voor familieleden,Support centre for relatives,,,
f3c6,centre accueil,Centre d'accueil,Onthaalcentrum,Shelter,,,D2 (Medical Operations)
f3c7,heliport,Zone d'atterrissage d'hélicoptère,Landingszone voor helikopters ,Helicopter Landing Zone,Organisation lieux,Organisatie interventieterrein,Organizations places
f3c8,fort chabrol,Fort Chabrol,Fort Chabrol,Fort Chabrol,,,
f3c9,helicoptere,Hélicoptère,Helicopter,Helicopter,,,
f3ca,fuite de gaz,Fuite de gaz,Gaslek,Gas leak,,,Incident Type
f3cb,frise 6,Frise 6,Frise 6,Frise 6,,,
f3cc,frise 5,Frise 5,Frise 5,Frise 5,,,
f3cd,frise 4,Frise 4,Frise 4,Frise 4,,,
f3ce,frise 3,Frise 3,Frise 3 ,Frise 3,,,
f3cf,forte pluie,Forte pluie,Hevige regen,Heavy rain,,,Incident Type
f3d0,football,Football,Football,Football,,,
f3d1,incident aerien,Incident de transport aérien,Incident luchttransport,Air Transport Incident,,,Incident Type
f3d2,incendie,"Incendie (bâtiments, infrastructure, …)","Brand (gebouwen, infrastructuur, ...)","Fire (Buildings, Infrastructure, ...)",,,Incident Type
f3d3,feu artifice,Feu d’artifice,Vuurwerk,Fireworks,,,
f3d4,explosion,Explosion de bombe,Bomexplosie,Bomb Explosion,,,Incident Type
f3d5,exit,Exit,Exit,Exit,Organisation lieux,Organisatie interventieterrein,Organizations places
f3d6,emeute,Emeutes,Onlusten,Riots,,,Incident Type
f3d7,effondrement,Endommagement / Effondrement d'un bâtiment / infrastructure,Beschadiging / Instorting van een gebouw / infrastructuur,Damage to / Collapse of a Building / Infrastructure,,,Incident Type
f3d8,ecole,Ecole,School,School,,,
f3d9,eau potable,Eau potable,Drinkwater,Drinking water,,,
f3da,food truck,Food truck,Food truck,Food truck,,,
f3db,neige,Neige,Sneeuw,Snow,,,
f3dc,morgue,Morgue,Mortuarium,Morgue,,,
f3dd,manifestation,Manifestations,Betoging,Demonstrations,,,Incident Type
f3de,maison de repos,Maison de repos,Verpleeghuis,Nursing home,,,
f3df,maison communale,Maison communale,Gemeentenhuis,Town hall,,,
f3e0,innondation,Inondation,Overstroming,Flood,,,Incident Type
f3e1,incident routier,Incident de transport par route,Incident wegvervoer,Road Transport Incident,,,Incident Type
f3e2,incident nucleaire,Incident / radiologique,Nucleair / Radiologisch incident ,Nuclear / Radiological Incident,,,Incident Type
f3e3,incident maritime,Incident maritime,Maritiem incident,Maritime Incident,,,Incident Type
f3e4,incident biologique,Incident biologique,Biologisch incident,Biological Incident,,,Incident Type
f3e5,orage,Orage,Onweer,Storm,,,
f3e6,toilette,Toilette,Toilet,Toilet,,,
f3e7,tentes,Tentes,Tenten,Tents,,,
f3e8,stand nourriture,Stand nourriture,Eetkraam,Food stand,,,
f3e9,salle de sport,Salle de sport,Sportzaal,Sport hall,,,
f3ea,reanimation,Réanimation,Reanimatie,Reanimation,,,
f3eb,public,Public,Publik,Public,,,
f3ec,prise otage,Enlèvement et prise d'otages,Kidnapping / Gijzeling,Kidnapping and Hostage Taking,,,Incident Type
f3ed,poste medical avance,Poste Médical Avancé,Vooruitgeschoven Medische Post (VMP),Deployed Medical Station,,,D2 (Medical Operations)
f3ee,polution,Pollution de l'environnement,Milieuvervuiling,Environmental Pollution,,,Incident Type
f3ef,point de premiere destination des secours,Point de première destination des secours,Eerste oproeppunt voor hulpdiensten,First point of call for emergency services,,,
f3f0,point acceuil presse,Point d’accueil presse,Persontvangspunt,Press welcome point,,,
f3f1,pc ops,Poste de Commandement Opérationnel,Commandpost Operaties,Operationel Command Post,Coordination,Coördinatie,Coordination
f3f2,pc med,PC medical,Medische PC,Medical PC,,,
f3f3,parking,Parking,Parking,Parking,,,
f3f4,toilette mobile,Toilette mobile,Mobiel toilet,Mobile toilet,,,
f3f5,way out,Point de sortie du périmètre,Uitgangspunt van de perimeter,Perimeter Exit Point,Organisation lieux,Organisatie interventieterrein,Organizations places
f3f6,way in,Accès au périmètre,Toegang tot de perimeter,Perimeter Access,Organisation lieux,Organisatie interventieterrein,Organizations places
f3f7,vent violent,Vent violent,Sterke wind,Strong wind,,,
f3f8,vehicule d1,Véhicule D1,Voertuig D1,Vehicle D1,,,
f3f9,vehicule d2,Véhicule D2,Voertuig D2,Vehicle D2,,,
f3fa,vehicule d3,Véhicule D3,Voertuig D3,Vehicle D3,,,
